2022-01-01 14:50:08,264 INFO scheduler Scheduled Job Start: frappe.social.doctype.energy_point_log.energy_point_log.send_monthly_summary for christianwiki.demo
2022-01-01 14:50:08,264 INFO scheduler Scheduled Job Start: frappe.integrations.doctype.s3_backup_settings.s3_backup_settings.take_backups_monthly for christianwiki.demo
2022-01-01 14:50:08,970 DEBUG scheduler Queued events for site christianwiki.demo
2022-01-01 14:50:12,692 INFO scheduler Scheduled Job Complete: frappe.social.doctype.energy_point_log.energy_point_log.send_monthly_summary for christianwiki.demo
2022-01-01 14:50:12,989 INFO scheduler Scheduled Job Start: frappe.email.doctype.auto_email_report.auto_email_report.send_monthly for christianwiki.demo
2022-01-01 14:50:15,849 INFO scheduler Scheduled Job Complete: frappe.integrations.doctype.s3_backup_settings.s3_backup_settings.take_backups_monthly for christianwiki.demo
2022-01-01 14:50:16,253 INFO scheduler Scheduled Job Start: frappe.integrations.doctype.google_drive.google_drive.weekly_backup for christianwiki.demo
2022-01-01 14:50:16,551 INFO scheduler Scheduled Job Complete: frappe.email.doctype.auto_email_report.auto_email_report.send_monthly for christianwiki.demo
2022-01-01 14:50:16,858 INFO scheduler Scheduled Job Start: frappe.core.doctype.log_settings.log_settings.run_log_clean_up for christianwiki.demo
2022-01-01 14:50:17,764 INFO scheduler Scheduled Job Complete: frappe.core.doctype.log_settings.log_settings.run_log_clean_up for christianwiki.demo
2022-01-01 14:50:18,080 INFO scheduler Scheduled Job Start: frappe.core.doctype.prepared_report.prepared_report.delete_expired_prepared_reports for christianwiki.demo
2022-01-01 14:50:18,104 INFO scheduler Scheduled Job Complete: frappe.integrations.doctype.google_drive.google_drive.weekly_backup for christianwiki.demo
2022-01-01 14:50:18,351 INFO scheduler Scheduled Job Start: frappe.social.doctype.energy_point_log.energy_point_log.send_weekly_summary for christianwiki.demo
2022-01-01 14:50:19,120 INFO scheduler Scheduled Job Complete: frappe.social.doctype.energy_point_log.energy_point_log.send_weekly_summary for christianwiki.demo
2022-01-01 14:50:19,295 INFO scheduler Scheduled Job Complete: frappe.core.doctype.prepared_report.prepared_report.delete_expired_prepared_reports for christianwiki.demo
2022-01-01 14:50:19,371 INFO scheduler Scheduled Job Start: frappe.desk.form.document_follow.send_weekly_updates for christianwiki.demo
2022-01-01 14:50:19,584 INFO scheduler Scheduled Job Start: frappe.email.doctype.unhandled_email.unhandled_email.remove_old_unhandled_emails for christianwiki.demo
2022-01-01 14:50:20,005 INFO scheduler Scheduled Job Complete: frappe.desk.form.document_follow.send_weekly_updates for christianwiki.demo
2022-01-01 14:50:20,217 INFO scheduler Scheduled Job Complete: frappe.email.doctype.unhandled_email.unhandled_email.remove_old_unhandled_emails for christianwiki.demo
2022-01-01 14:50:20,332 INFO scheduler Scheduled Job Start: frappe.desk.doctype.route_history.route_history.flush_old_route_records for christianwiki.demo
2022-01-01 14:50:20,463 INFO scheduler Scheduled Job Start: frappe.automation.doctype.auto_repeat.auto_repeat.set_auto_repeat_as_completed for christianwiki.demo
2022-01-01 14:50:21,050 INFO scheduler Scheduled Job Complete: frappe.desk.doctype.route_history.route_history.flush_old_route_records for christianwiki.demo
2022-01-01 14:50:21,371 INFO scheduler Scheduled Job Complete: frappe.automation.doctype.auto_repeat.auto_repeat.set_auto_repeat_as_completed for christianwiki.demo
2022-01-01 14:50:21,386 INFO scheduler Scheduled Job Start: frappe.integrations.doctype.s3_backup_settings.s3_backup_settings.take_backups_weekly for christianwiki.demo
2022-01-01 14:50:21,678 INFO scheduler Scheduled Job Start: frappe.automation.doctype.auto_repeat.auto_repeat.make_auto_repeat_entry for christianwiki.demo
2022-01-01 14:50:22,136 INFO scheduler Scheduled Job Complete: frappe.integrations.doctype.s3_backup_settings.s3_backup_settings.take_backups_weekly for christianwiki.demo
2022-01-01 14:50:22,523 INFO scheduler Scheduled Job Complete: frappe.automation.doctype.auto_repeat.auto_repeat.make_auto_repeat_entry for christianwiki.demo
2022-01-01 14:50:22,544 INFO scheduler Scheduled Job Start: frappe.integrations.doctype.dropbox_settings.dropbox_settings.take_backups_weekly for christianwiki.demo
2022-01-01 14:50:22,814 INFO scheduler Scheduled Job Start: frappe.integrations.doctype.google_contacts.google_contacts.sync for christianwiki.demo
2022-01-01 14:50:23,860 INFO scheduler Scheduled Job Complete: frappe.integrations.doctype.google_contacts.google_contacts.sync for christianwiki.demo
2022-01-01 14:50:23,927 INFO scheduler Scheduled Job Complete: frappe.integrations.doctype.dropbox_settings.dropbox_settings.take_backups_weekly for christianwiki.demo
2022-01-01 14:50:24,116 INFO scheduler Scheduled Job Start: frappe.social.doctype.energy_point_settings.energy_point_settings.allocate_review_points for christianwiki.demo
2022-01-01 14:50:24,202 INFO scheduler Scheduled Job Start: frappe.integrations.doctype.google_drive.google_drive.daily_backup for christianwiki.demo
2022-01-01 14:50:25,289 INFO scheduler Scheduled Job Complete: frappe.social.doctype.energy_point_settings.energy_point_settings.allocate_review_points for christianwiki.demo
2022-01-01 14:50:25,454 INFO scheduler Scheduled Job Complete: frappe.integrations.doctype.google_drive.google_drive.daily_backup for christianwiki.demo
2022-01-01 14:50:25,525 INFO scheduler Scheduled Job Start: frappe.desk.form.document_follow.send_daily_updates for christianwiki.demo
2022-01-01 14:50:25,700 INFO scheduler Scheduled Job Start: frappe.integrations.doctype.s3_backup_settings.s3_backup_settings.take_backups_daily for christianwiki.demo
2022-01-01 14:50:26,176 INFO scheduler Scheduled Job Complete: frappe.desk.form.document_follow.send_daily_updates for christianwiki.demo
2022-01-01 14:50:26,428 INFO scheduler Scheduled Job Start: frappe.website.doctype.personal_data_deletion_request.personal_data_deletion_request.remove_unverified_record for christianwiki.demo
2022-01-01 14:50:26,501 INFO scheduler Scheduled Job Complete: frappe.integrations.doctype.s3_backup_settings.s3_backup_settings.take_backups_daily for christianwiki.demo
2022-01-01 14:50:26,773 INFO scheduler Scheduled Job Start: frappe.utils.change_log.check_for_update for christianwiki.demo
2022-01-01 14:50:27,087 INFO scheduler Scheduled Job Complete: frappe.website.doctype.personal_data_deletion_request.personal_data_deletion_request.remove_unverified_record for christianwiki.demo
2022-01-01 14:50:27,345 INFO scheduler Scheduled Job Start: frappe.email.doctype.auto_email_report.auto_email_report.send_daily for christianwiki.demo
2022-01-01 14:50:28,212 INFO scheduler Scheduled Job Complete: frappe.email.doctype.auto_email_report.auto_email_report.send_daily for christianwiki.demo
2022-01-01 14:50:28,525 INFO scheduler Scheduled Job Start: frappe.utils.scheduler.restrict_scheduler_events_if_dormant for christianwiki.demo
2022-01-01 14:50:29,124 INFO scheduler Scheduled Job Complete: frappe.utils.change_log.check_for_update for christianwiki.demo
2022-01-01 14:50:29,429 INFO scheduler Scheduled Job Failed: frappe.utils.scheduler.restrict_scheduler_events_if_dormant for christianwiki.demo
2022-01-01 14:50:29,498 INFO scheduler Scheduled Job Start: frappe.integrations.doctype.dropbox_settings.dropbox_settings.take_backups_daily for christianwiki.demo
2022-01-01 14:50:29,678 INFO scheduler Scheduled Job Start: frappe.email.doctype.notification.notification.trigger_daily_alerts for christianwiki.demo
2022-01-01 14:50:30,282 INFO scheduler Scheduled Job Complete: frappe.email.doctype.notification.notification.trigger_daily_alerts for christianwiki.demo
2022-01-01 14:50:30,338 INFO scheduler Scheduled Job Complete: frappe.integrations.doctype.dropbox_settings.dropbox_settings.take_backups_daily for christianwiki.demo
2022-01-01 14:50:30,546 INFO scheduler Scheduled Job Start: frappe.sessions.clear_expired_sessions for christianwiki.demo
2022-01-01 14:50:31,169 INFO scheduler Scheduled Job Complete: frappe.sessions.clear_expired_sessions for christianwiki.demo
2022-01-01 14:50:31,427 INFO scheduler Scheduled Job Start: frappe.desk.doctype.event.event.send_event_digest for christianwiki.demo
2022-01-01 14:50:32,024 INFO scheduler Scheduled Job Complete: frappe.desk.doctype.event.event.send_event_digest for christianwiki.demo
2022-01-01 14:50:32,258 INFO scheduler Scheduled Job Start: frappe.core.doctype.error_log.error_log.set_old_logs_as_seen for christianwiki.demo
2022-01-01 14:50:32,930 INFO scheduler Scheduled Job Complete: frappe.core.doctype.error_log.error_log.set_old_logs_as_seen for christianwiki.demo
2022-01-01 14:50:33,224 INFO scheduler Scheduled Job Start: frappe.desk.notifications.clear_notifications for christianwiki.demo
2022-01-01 14:50:33,770 INFO scheduler Scheduled Job Complete: frappe.desk.notifications.clear_notifications for christianwiki.demo
2022-01-01 14:50:34,157 INFO scheduler Scheduled Job Start: frappe.email.queue.set_expiry_for_email_queue for christianwiki.demo
2022-01-01 14:50:34,873 INFO scheduler Scheduled Job Complete: frappe.email.queue.set_expiry_for_email_queue for christianwiki.demo
2022-01-01 14:50:35,133 INFO scheduler Scheduled Job Start: frappe.email.doctype.newsletter.newsletter.send_scheduled_email for christianwiki.demo
2022-01-01 14:50:36,768 INFO scheduler Scheduled Job Complete: frappe.email.doctype.newsletter.newsletter.send_scheduled_email for christianwiki.demo
2022-01-01 14:50:37,052 INFO scheduler Scheduled Job Start: frappe.integrations.doctype.google_calendar.google_calendar.sync for christianwiki.demo
2022-01-01 14:50:37,988 INFO scheduler Scheduled Job Complete: frappe.integrations.doctype.google_calendar.google_calendar.sync for christianwiki.demo
2022-01-01 14:50:38,231 INFO scheduler Scheduled Job Start: frappe.desk.form.document_follow.send_hourly_updates for christianwiki.demo
2022-01-01 14:50:38,807 INFO scheduler Scheduled Job Complete: frappe.desk.form.document_follow.send_hourly_updates for christianwiki.demo
2022-01-01 14:50:39,141 INFO scheduler Scheduled Job Start: frappe.deferred_insert.save_to_db for christianwiki.demo
2022-01-01 14:50:39,726 INFO scheduler Scheduled Job Complete: frappe.deferred_insert.save_to_db for christianwiki.demo
2022-01-01 14:50:40,000 INFO scheduler Scheduled Job Start: frappe.desk.page.backups.backups.delete_downloadable_backups for christianwiki.demo
2022-01-01 14:50:40,648 INFO scheduler Scheduled Job Complete: frappe.desk.page.backups.backups.delete_downloadable_backups for christianwiki.demo
2022-01-01 14:50:40,903 INFO scheduler Scheduled Job Start: frappe.utils.error.collect_error_snapshots for christianwiki.demo
2022-01-01 14:50:41,704 INFO scheduler Scheduled Job Complete: frappe.utils.error.collect_error_snapshots for christianwiki.demo
2022-01-01 14:50:41,965 INFO scheduler Scheduled Job Start: frappe.model.utils.user_settings.sync_user_settings for christianwiki.demo
2022-01-01 14:50:42,809 INFO scheduler Scheduled Job Complete: frappe.model.utils.user_settings.sync_user_settings for christianwiki.demo
2022-01-01 14:50:43,103 INFO scheduler Scheduled Job Start: frappe.model.utils.link_count.update_link_count for christianwiki.demo
2022-01-01 14:50:43,952 INFO scheduler Scheduled Job Complete: frappe.model.utils.link_count.update_link_count for christianwiki.demo
2022-01-01 14:50:44,199 INFO scheduler Scheduled Job Start: frappe.monitor.flush for christianwiki.demo
2022-01-01 14:50:44,637 INFO scheduler Scheduled Job Complete: frappe.monitor.flush for christianwiki.demo
2022-01-01 14:50:44,819 INFO scheduler Scheduled Job Start: frappe.utils.global_search.sync_global_search for christianwiki.demo
2022-01-01 14:50:45,451 INFO scheduler Scheduled Job Complete: frappe.utils.global_search.sync_global_search for christianwiki.demo
2022-01-01 14:50:45,640 INFO scheduler Scheduled Job Start: frappe.integrations.doctype.razorpay_settings.razorpay_settings.capture_payment for christianwiki.demo
2022-01-01 14:50:46,303 INFO scheduler Scheduled Job Complete: frappe.integrations.doctype.razorpay_settings.razorpay_settings.capture_payment for christianwiki.demo
2022-01-01 14:50:46,482 INFO scheduler Scheduled Job Start: frappe.email.doctype.email_account.email_account.notify_unreplied for christianwiki.demo
2022-01-01 14:50:46,970 INFO scheduler Scheduled Job Complete: frappe.email.doctype.email_account.email_account.notify_unreplied for christianwiki.demo
2022-01-01 14:50:47,146 INFO scheduler Scheduled Job Start: frappe.email.doctype.email_account.email_account.pull for christianwiki.demo
2022-01-01 14:50:47,719 INFO scheduler Scheduled Job Complete: frappe.email.doctype.email_account.email_account.pull for christianwiki.demo
2022-01-01 14:50:47,918 INFO scheduler Scheduled Job Start: frappe.email.queue.flush for christianwiki.demo
2022-01-01 14:50:48,361 INFO scheduler Scheduled Job Complete: frappe.email.queue.flush for christianwiki.demo
2022-01-01 14:50:48,547 INFO scheduler Scheduled Job Start: frappe.twofactor.delete_all_barcodes_for_users for christianwiki.demo
2022-01-01 14:50:49,279 INFO scheduler Scheduled Job Complete: frappe.twofactor.delete_all_barcodes_for_users for christianwiki.demo
2022-01-01 14:50:49,527 INFO scheduler Scheduled Job Start: frappe.website.doctype.web_page.web_page.check_publish_status for christianwiki.demo
2022-01-01 14:50:50,487 INFO scheduler Scheduled Job Complete: frappe.website.doctype.web_page.web_page.check_publish_status for christianwiki.demo
2022-01-01 14:50:50,756 INFO scheduler Scheduled Job Start: frappe.oauth.delete_oauth2_data for christianwiki.demo
2022-01-01 14:50:51,971 INFO scheduler Scheduled Job Complete: frappe.oauth.delete_oauth2_data for christianwiki.demo
2022-01-01 14:51:09,327 DEBUG scheduler Queued events for site christianwiki.demo
2022-01-02 12:14:54,303 DEBUG scheduler Queued events for site christianwiki.demo
2022-01-02 12:15:02,445 INFO scheduler Scheduled Job Start: frappe.core.doctype.log_settings.log_settings.run_log_clean_up for christianwiki.demo
2022-01-02 12:15:02,445 INFO scheduler Scheduled Job Start: frappe.integrations.doctype.google_drive.google_drive.weekly_backup for christianwiki.demo
2022-01-02 12:15:26,361 INFO scheduler Scheduled Job Complete: frappe.core.doctype.log_settings.log_settings.run_log_clean_up for christianwiki.demo
2022-01-02 12:15:29,552 INFO scheduler Scheduled Job Complete: frappe.integrations.doctype.google_drive.google_drive.weekly_backup for christianwiki.demo
2022-01-02 12:15:33,368 INFO scheduler Scheduled Job Start: frappe.core.doctype.prepared_report.prepared_report.delete_expired_prepared_reports for christianwiki.demo
2022-01-02 12:15:33,368 INFO scheduler Scheduled Job Start: frappe.social.doctype.energy_point_log.energy_point_log.send_weekly_summary for christianwiki.demo
2022-01-02 12:15:39,445 INFO scheduler Scheduled Job Complete: frappe.social.doctype.energy_point_log.energy_point_log.send_weekly_summary for christianwiki.demo
2022-01-02 12:15:39,770 INFO scheduler Scheduled Job Start: frappe.desk.form.document_follow.send_weekly_updates for christianwiki.demo
2022-01-02 12:15:39,924 INFO scheduler Scheduled Job Complete: frappe.core.doctype.prepared_report.prepared_report.delete_expired_prepared_reports for christianwiki.demo
2022-01-02 12:15:40,409 INFO scheduler Scheduled Job Start: frappe.email.doctype.unhandled_email.unhandled_email.remove_old_unhandled_emails for christianwiki.demo
2022-01-02 12:15:41,985 INFO scheduler Scheduled Job Complete: frappe.email.doctype.unhandled_email.unhandled_email.remove_old_unhandled_emails for christianwiki.demo
2022-01-02 12:15:41,997 INFO scheduler Scheduled Job Complete: frappe.desk.form.document_follow.send_weekly_updates for christianwiki.demo
2022-01-02 12:15:43,563 INFO scheduler Scheduled Job Start: frappe.automation.doctype.auto_repeat.auto_repeat.set_auto_repeat_as_completed for christianwiki.demo
2022-01-02 12:15:43,714 INFO scheduler Scheduled Job Start: frappe.desk.doctype.route_history.route_history.flush_old_route_records for christianwiki.demo
2022-01-02 12:15:45,077 INFO scheduler Scheduled Job Complete: frappe.desk.doctype.route_history.route_history.flush_old_route_records for christianwiki.demo
2022-01-02 12:15:45,499 INFO scheduler Scheduled Job Start: frappe.integrations.doctype.s3_backup_settings.s3_backup_settings.take_backups_weekly for christianwiki.demo
2022-01-02 12:15:46,171 INFO scheduler Scheduled Job Complete: frappe.automation.doctype.auto_repeat.auto_repeat.set_auto_repeat_as_completed for christianwiki.demo
2022-01-02 12:15:46,574 INFO scheduler Scheduled Job Start: frappe.automation.doctype.auto_repeat.auto_repeat.make_auto_repeat_entry for christianwiki.demo
2022-01-02 12:15:48,303 INFO scheduler Scheduled Job Complete: frappe.automation.doctype.auto_repeat.auto_repeat.make_auto_repeat_entry for christianwiki.demo
2022-01-02 12:15:48,694 INFO scheduler Scheduled Job Start: frappe.integrations.doctype.google_contacts.google_contacts.sync for christianwiki.demo
2022-01-02 12:15:51,506 INFO scheduler Scheduled Job Complete: frappe.integrations.doctype.s3_backup_settings.s3_backup_settings.take_backups_weekly for christianwiki.demo
2022-01-02 12:15:51,848 INFO scheduler Scheduled Job Start: frappe.integrations.doctype.dropbox_settings.dropbox_settings.take_backups_weekly for christianwiki.demo
2022-01-02 12:15:52,851 INFO scheduler Scheduled Job Complete: frappe.integrations.doctype.google_contacts.google_contacts.sync for christianwiki.demo
2022-01-02 12:15:53,509 INFO scheduler Scheduled Job Start: frappe.social.doctype.energy_point_settings.energy_point_settings.allocate_review_points for christianwiki.demo
2022-01-02 12:15:55,269 INFO scheduler Scheduled Job Complete: frappe.integrations.doctype.dropbox_settings.dropbox_settings.take_backups_weekly for christianwiki.demo
2022-01-02 12:15:55,367 DEBUG scheduler Queued events for site christianwiki.demo
2022-01-02 12:15:55,533 INFO scheduler Scheduled Job Complete: frappe.social.doctype.energy_point_settings.energy_point_settings.allocate_review_points for christianwiki.demo
2022-01-02 12:15:55,952 INFO scheduler Scheduled Job Start: frappe.integrations.doctype.google_drive.google_drive.daily_backup for christianwiki.demo
2022-01-02 12:15:55,981 INFO scheduler Scheduled Job Start: frappe.desk.form.document_follow.send_daily_updates for christianwiki.demo
2022-01-02 12:15:56,742 INFO scheduler Scheduled Job Complete: frappe.desk.form.document_follow.send_daily_updates for christianwiki.demo
2022-01-02 12:15:57,040 INFO scheduler Scheduled Job Start: frappe.website.doctype.personal_data_deletion_request.personal_data_deletion_request.remove_unverified_record for christianwiki.demo
2022-01-02 12:15:57,102 INFO scheduler Scheduled Job Complete: frappe.integrations.doctype.google_drive.google_drive.daily_backup for christianwiki.demo
2022-01-02 12:15:57,385 INFO scheduler Scheduled Job Start: frappe.integrations.doctype.s3_backup_settings.s3_backup_settings.take_backups_daily for christianwiki.demo
2022-01-02 12:15:58,305 INFO scheduler Scheduled Job Complete: frappe.integrations.doctype.s3_backup_settings.s3_backup_settings.take_backups_daily for christianwiki.demo
2022-01-02 12:15:58,327 INFO scheduler Scheduled Job Complete: frappe.website.doctype.personal_data_deletion_request.personal_data_deletion_request.remove_unverified_record for christianwiki.demo
2022-01-02 12:15:58,617 INFO scheduler Scheduled Job Start: frappe.utils.change_log.check_for_update for christianwiki.demo
2022-01-02 12:15:58,684 INFO scheduler Scheduled Job Start: frappe.email.doctype.auto_email_report.auto_email_report.send_daily for christianwiki.demo
2022-01-02 12:16:05,057 INFO scheduler Scheduled Job Complete: frappe.email.doctype.auto_email_report.auto_email_report.send_daily for christianwiki.demo
2022-01-02 12:16:05,452 INFO scheduler Scheduled Job Start: frappe.utils.scheduler.restrict_scheduler_events_if_dormant for christianwiki.demo
2022-01-02 12:16:06,693 INFO scheduler Scheduled Job Failed: frappe.utils.scheduler.restrict_scheduler_events_if_dormant for christianwiki.demo
2022-01-02 12:16:08,020 INFO scheduler Scheduled Job Start: frappe.email.doctype.notification.notification.trigger_daily_alerts for christianwiki.demo
2022-01-02 12:16:08,037 INFO scheduler Scheduled Job Complete: frappe.utils.change_log.check_for_update for christianwiki.demo
2022-01-02 12:16:08,341 INFO scheduler Scheduled Job Start: frappe.integrations.doctype.dropbox_settings.dropbox_settings.take_backups_daily for christianwiki.demo
2022-01-02 12:16:08,663 INFO scheduler Scheduled Job Complete: frappe.email.doctype.notification.notification.trigger_daily_alerts for christianwiki.demo
2022-01-02 12:16:08,931 INFO scheduler Scheduled Job Start: frappe.sessions.clear_expired_sessions for christianwiki.demo
2022-01-02 12:16:09,209 INFO scheduler Scheduled Job Complete: frappe.integrations.doctype.dropbox_settings.dropbox_settings.take_backups_daily for christianwiki.demo
2022-01-02 12:16:11,237 INFO scheduler Scheduled Job Complete: frappe.sessions.clear_expired_sessions for christianwiki.demo
2022-01-02 12:16:11,556 INFO scheduler Scheduled Job Start: frappe.desk.doctype.event.event.send_event_digest for christianwiki.demo
2022-01-02 12:16:12,572 INFO scheduler Scheduled Job Complete: frappe.desk.doctype.event.event.send_event_digest for christianwiki.demo
2022-01-02 12:16:13,311 INFO scheduler Scheduled Job Start: frappe.core.doctype.error_log.error_log.set_old_logs_as_seen for christianwiki.demo
2022-01-02 12:16:14,161 INFO scheduler Scheduled Job Complete: frappe.core.doctype.error_log.error_log.set_old_logs_as_seen for christianwiki.demo
2022-01-02 12:16:14,422 INFO scheduler Scheduled Job Start: frappe.desk.notifications.clear_notifications for christianwiki.demo
2022-01-02 12:16:15,377 INFO scheduler Scheduled Job Complete: frappe.desk.notifications.clear_notifications for christianwiki.demo
2022-01-02 12:16:15,663 INFO scheduler Scheduled Job Start: frappe.email.queue.set_expiry_for_email_queue for christianwiki.demo
2022-01-02 12:16:16,447 INFO scheduler Scheduled Job Complete: frappe.email.queue.set_expiry_for_email_queue for christianwiki.demo
2022-01-02 12:16:16,729 INFO scheduler Scheduled Job Start: frappe.email.doctype.newsletter.newsletter.send_scheduled_email for christianwiki.demo
2022-01-02 12:16:19,090 INFO scheduler Scheduled Job Complete: frappe.email.doctype.newsletter.newsletter.send_scheduled_email for christianwiki.demo
2022-01-02 12:16:19,345 INFO scheduler Scheduled Job Start: frappe.integrations.doctype.google_calendar.google_calendar.sync for christianwiki.demo
2022-01-02 12:16:20,783 INFO scheduler Scheduled Job Complete: frappe.integrations.doctype.google_calendar.google_calendar.sync for christianwiki.demo
2022-01-02 12:16:21,116 INFO scheduler Scheduled Job Start: frappe.desk.form.document_follow.send_hourly_updates for christianwiki.demo
2022-01-02 12:16:21,914 INFO scheduler Scheduled Job Complete: frappe.desk.form.document_follow.send_hourly_updates for christianwiki.demo
2022-01-02 12:16:22,219 INFO scheduler Scheduled Job Start: frappe.deferred_insert.save_to_db for christianwiki.demo
2022-01-02 12:16:23,222 INFO scheduler Scheduled Job Complete: frappe.deferred_insert.save_to_db for christianwiki.demo
2022-01-02 12:16:23,560 INFO scheduler Scheduled Job Start: frappe.desk.page.backups.backups.delete_downloadable_backups for christianwiki.demo
2022-01-02 12:16:24,538 INFO scheduler Scheduled Job Complete: frappe.desk.page.backups.backups.delete_downloadable_backups for christianwiki.demo
2022-01-02 12:16:24,872 INFO scheduler Scheduled Job Start: frappe.utils.error.collect_error_snapshots for christianwiki.demo
2022-01-02 12:16:25,843 INFO scheduler Scheduled Job Complete: frappe.utils.error.collect_error_snapshots for christianwiki.demo
2022-01-02 12:16:26,113 INFO scheduler Scheduled Job Start: frappe.model.utils.user_settings.sync_user_settings for christianwiki.demo
2022-01-02 12:16:26,687 INFO scheduler Scheduled Job Complete: frappe.model.utils.user_settings.sync_user_settings for christianwiki.demo
2022-01-02 12:16:26,938 INFO scheduler Scheduled Job Start: frappe.model.utils.link_count.update_link_count for christianwiki.demo
2022-01-02 12:16:27,894 INFO scheduler Scheduled Job Complete: frappe.model.utils.link_count.update_link_count for christianwiki.demo
2022-01-02 12:16:28,296 INFO scheduler Scheduled Job Start: frappe.monitor.flush for christianwiki.demo
2022-01-02 12:16:28,706 INFO scheduler Scheduled Job Complete: frappe.monitor.flush for christianwiki.demo
2022-01-02 12:16:28,887 INFO scheduler Scheduled Job Start: frappe.utils.global_search.sync_global_search for christianwiki.demo
2022-01-02 12:16:29,598 INFO scheduler Scheduled Job Complete: frappe.utils.global_search.sync_global_search for christianwiki.demo
2022-01-02 12:16:29,779 INFO scheduler Scheduled Job Start: frappe.integrations.doctype.razorpay_settings.razorpay_settings.capture_payment for christianwiki.demo
2022-01-02 12:16:30,915 INFO scheduler Scheduled Job Complete: frappe.integrations.doctype.razorpay_settings.razorpay_settings.capture_payment for christianwiki.demo
2022-01-02 12:16:31,097 INFO scheduler Scheduled Job Start: frappe.email.doctype.email_account.email_account.notify_unreplied for christianwiki.demo
2022-01-02 12:16:32,346 INFO scheduler Scheduled Job Complete: frappe.email.doctype.email_account.email_account.notify_unreplied for christianwiki.demo
2022-01-02 12:16:32,544 INFO scheduler Scheduled Job Start: frappe.email.doctype.email_account.email_account.pull for christianwiki.demo
2022-01-02 12:16:33,305 INFO scheduler Scheduled Job Complete: frappe.email.doctype.email_account.email_account.pull for christianwiki.demo
2022-01-02 12:16:33,502 INFO scheduler Scheduled Job Start: frappe.email.queue.flush for christianwiki.demo
2022-01-02 12:16:33,920 INFO scheduler Scheduled Job Complete: frappe.email.queue.flush for christianwiki.demo
2022-01-02 12:16:34,106 INFO scheduler Scheduled Job Start: frappe.twofactor.delete_all_barcodes_for_users for christianwiki.demo
2022-01-02 12:16:35,065 INFO scheduler Scheduled Job Complete: frappe.twofactor.delete_all_barcodes_for_users for christianwiki.demo
2022-01-02 12:16:35,336 INFO scheduler Scheduled Job Start: frappe.website.doctype.web_page.web_page.check_publish_status for christianwiki.demo
2022-01-02 12:16:37,225 INFO scheduler Scheduled Job Complete: frappe.website.doctype.web_page.web_page.check_publish_status for christianwiki.demo
2022-01-02 12:16:37,520 INFO scheduler Scheduled Job Start: frappe.oauth.delete_oauth2_data for christianwiki.demo
2022-01-02 12:16:39,533 INFO scheduler Scheduled Job Complete: frappe.oauth.delete_oauth2_data for christianwiki.demo
2022-01-02 12:16:55,749 DEBUG scheduler Queued events for site christianwiki.demo
2022-01-02 12:17:56,118 DEBUG scheduler Queued events for site christianwiki.demo
2022-01-02 12:49:37,011 DEBUG scheduler Queued events for site christianwiki.demo
2022-01-02 12:49:37,027 INFO scheduler Scheduled Job Start: frappe.monitor.flush for christianwiki.demo
2022-01-02 12:49:38,140 INFO scheduler Scheduled Job Complete: frappe.monitor.flush for christianwiki.demo
2022-01-02 12:49:38,328 INFO scheduler Scheduled Job Start: frappe.utils.global_search.sync_global_search for christianwiki.demo
2022-01-02 12:49:38,750 INFO scheduler Scheduled Job Complete: frappe.utils.global_search.sync_global_search for christianwiki.demo
2022-01-02 12:49:38,935 INFO scheduler Scheduled Job Start: frappe.integrations.doctype.razorpay_settings.razorpay_settings.capture_payment for christianwiki.demo
2022-01-02 12:49:39,664 INFO scheduler Scheduled Job Complete: frappe.integrations.doctype.razorpay_settings.razorpay_settings.capture_payment for christianwiki.demo
2022-01-02 12:49:39,859 INFO scheduler Scheduled Job Start: frappe.email.doctype.email_account.email_account.notify_unreplied for christianwiki.demo
2022-01-02 12:49:40,870 INFO scheduler Scheduled Job Complete: frappe.email.doctype.email_account.email_account.notify_unreplied for christianwiki.demo
2022-01-02 12:49:41,050 INFO scheduler Scheduled Job Start: frappe.email.doctype.email_account.email_account.pull for christianwiki.demo
2022-01-02 12:49:42,144 INFO scheduler Scheduled Job Complete: frappe.email.doctype.email_account.email_account.pull for christianwiki.demo
2022-01-02 12:49:42,333 INFO scheduler Scheduled Job Start: frappe.email.queue.flush for christianwiki.demo
2022-01-02 12:49:42,791 INFO scheduler Scheduled Job Complete: frappe.email.queue.flush for christianwiki.demo
2022-01-02 12:49:42,970 INFO scheduler Scheduled Job Start: frappe.twofactor.delete_all_barcodes_for_users for christianwiki.demo
2022-01-02 12:49:44,435 INFO scheduler Scheduled Job Complete: frappe.twofactor.delete_all_barcodes_for_users for christianwiki.demo
2022-01-02 12:49:44,681 INFO scheduler Scheduled Job Start: frappe.website.doctype.web_page.web_page.check_publish_status for christianwiki.demo
2022-01-02 12:49:45,746 INFO scheduler Scheduled Job Complete: frappe.website.doctype.web_page.web_page.check_publish_status for christianwiki.demo
2022-01-02 12:49:46,010 INFO scheduler Scheduled Job Start: frappe.oauth.delete_oauth2_data for christianwiki.demo
2022-01-02 12:49:46,918 INFO scheduler Scheduled Job Complete: frappe.oauth.delete_oauth2_data for christianwiki.demo
2022-01-02 12:50:37,470 DEBUG scheduler Queued events for site christianwiki.demo
2022-01-02 12:51:37,841 DEBUG scheduler Queued events for site christianwiki.demo
2022-01-02 12:52:38,304 DEBUG scheduler Queued events for site christianwiki.demo
2022-01-02 12:52:38,717 INFO scheduler Scheduled Job Start: frappe.monitor.flush for christianwiki.demo
2022-01-02 12:52:39,233 INFO scheduler Scheduled Job Complete: frappe.monitor.flush for christianwiki.demo
2022-01-02 12:52:39,407 INFO scheduler Scheduled Job Start: frappe.utils.global_search.sync_global_search for christianwiki.demo
2022-01-02 12:52:39,860 INFO scheduler Scheduled Job Complete: frappe.utils.global_search.sync_global_search for christianwiki.demo
2022-01-02 12:52:40,046 INFO scheduler Scheduled Job Start: frappe.integrations.doctype.razorpay_settings.razorpay_settings.capture_payment for christianwiki.demo
2022-01-02 12:52:40,494 INFO scheduler Scheduled Job Complete: frappe.integrations.doctype.razorpay_settings.razorpay_settings.capture_payment for christianwiki.demo
2022-01-02 12:52:40,672 INFO scheduler Scheduled Job Start: frappe.email.doctype.email_account.email_account.notify_unreplied for christianwiki.demo
2022-01-02 12:52:41,307 INFO scheduler Scheduled Job Complete: frappe.email.doctype.email_account.email_account.notify_unreplied for christianwiki.demo
2022-01-02 12:52:41,484 INFO scheduler Scheduled Job Start: frappe.email.doctype.email_account.email_account.pull for christianwiki.demo
2022-01-02 12:52:42,023 INFO scheduler Scheduled Job Complete: frappe.email.doctype.email_account.email_account.pull for christianwiki.demo
2022-01-02 12:52:42,198 INFO scheduler Scheduled Job Start: frappe.email.queue.flush for christianwiki.demo
2022-01-02 12:52:42,658 INFO scheduler Scheduled Job Complete: frappe.email.queue.flush for christianwiki.demo
2022-01-02 12:53:38,664 DEBUG scheduler Queued events for site christianwiki.demo
2022-01-02 12:54:39,037 DEBUG scheduler Queued events for site christianwiki.demo
2022-01-02 12:55:39,391 DEBUG scheduler Queued events for site christianwiki.demo
2022-01-02 12:56:39,832 DEBUG scheduler Queued events for site christianwiki.demo
2022-01-02 12:56:39,891 INFO scheduler Scheduled Job Start: frappe.monitor.flush for christianwiki.demo
2022-01-02 12:56:40,351 INFO scheduler Scheduled Job Complete: frappe.monitor.flush for christianwiki.demo
2022-01-02 12:56:40,532 INFO scheduler Scheduled Job Start: frappe.utils.global_search.sync_global_search for christianwiki.demo
2022-01-02 12:56:41,000 INFO scheduler Scheduled Job Complete: frappe.utils.global_search.sync_global_search for christianwiki.demo
2022-01-02 12:56:41,176 INFO scheduler Scheduled Job Start: frappe.integrations.doctype.razorpay_settings.razorpay_settings.capture_payment for christianwiki.demo
2022-01-02 12:56:41,681 INFO scheduler Scheduled Job Complete: frappe.integrations.doctype.razorpay_settings.razorpay_settings.capture_payment for christianwiki.demo
2022-01-02 12:56:41,853 INFO scheduler Scheduled Job Start: frappe.email.doctype.email_account.email_account.notify_unreplied for christianwiki.demo
2022-01-02 12:56:42,412 INFO scheduler Scheduled Job Complete: frappe.email.doctype.email_account.email_account.notify_unreplied for christianwiki.demo
2022-01-02 12:56:42,581 INFO scheduler Scheduled Job Start: frappe.email.doctype.email_account.email_account.pull for christianwiki.demo
2022-01-02 12:56:43,111 INFO scheduler Scheduled Job Complete: frappe.email.doctype.email_account.email_account.pull for christianwiki.demo
2022-01-02 12:56:43,283 INFO scheduler Scheduled Job Start: frappe.email.queue.flush for christianwiki.demo
2022-01-02 12:56:43,709 INFO scheduler Scheduled Job Complete: frappe.email.queue.flush for christianwiki.demo
2022-01-02 12:57:40,192 DEBUG scheduler Queued events for site christianwiki.demo
2022-01-02 12:58:40,558 DEBUG scheduler Queued events for site christianwiki.demo
2022-01-02 12:59:40,926 DEBUG scheduler Queued events for site christianwiki.demo
2022-01-02 13:00:41,413 INFO scheduler Scheduled Job Start: frappe.email.doctype.newsletter.newsletter.send_scheduled_email for christianwiki.demo
2022-01-02 13:00:41,547 DEBUG scheduler Queued events for site christianwiki.demo
2022-01-02 13:00:42,458 INFO scheduler Scheduled Job Complete: frappe.email.doctype.newsletter.newsletter.send_scheduled_email for christianwiki.demo
2022-01-02 13:00:42,715 INFO scheduler Scheduled Job Start: frappe.integrations.doctype.google_calendar.google_calendar.sync for christianwiki.demo
2022-01-02 13:00:44,414 INFO scheduler Scheduled Job Complete: frappe.integrations.doctype.google_calendar.google_calendar.sync for christianwiki.demo
2022-01-02 13:00:44,730 INFO scheduler Scheduled Job Start: frappe.desk.form.document_follow.send_hourly_updates for christianwiki.demo
2022-01-02 13:00:45,352 INFO scheduler Scheduled Job Complete: frappe.desk.form.document_follow.send_hourly_updates for christianwiki.demo
2022-01-02 13:00:45,591 INFO scheduler Scheduled Job Start: frappe.deferred_insert.save_to_db for christianwiki.demo
2022-01-02 13:00:46,419 INFO scheduler Scheduled Job Complete: frappe.deferred_insert.save_to_db for christianwiki.demo
2022-01-02 13:00:46,661 INFO scheduler Scheduled Job Start: frappe.desk.page.backups.backups.delete_downloadable_backups for christianwiki.demo
2022-01-02 13:00:47,470 INFO scheduler Scheduled Job Complete: frappe.desk.page.backups.backups.delete_downloadable_backups for christianwiki.demo
2022-01-02 13:00:47,715 INFO scheduler Scheduled Job Start: frappe.utils.error.collect_error_snapshots for christianwiki.demo
2022-01-02 13:00:48,431 INFO scheduler Scheduled Job Complete: frappe.utils.error.collect_error_snapshots for christianwiki.demo
2022-01-02 13:00:48,687 INFO scheduler Scheduled Job Start: frappe.model.utils.user_settings.sync_user_settings for christianwiki.demo
2022-01-02 13:00:49,333 INFO scheduler Scheduled Job Complete: frappe.model.utils.user_settings.sync_user_settings for christianwiki.demo
2022-01-02 13:00:49,605 INFO scheduler Scheduled Job Start: frappe.model.utils.link_count.update_link_count for christianwiki.demo
2022-01-02 13:00:50,212 INFO scheduler Scheduled Job Complete: frappe.model.utils.link_count.update_link_count for christianwiki.demo
2022-01-02 13:00:50,452 INFO scheduler Scheduled Job Start: frappe.monitor.flush for christianwiki.demo
2022-01-02 13:00:50,814 INFO scheduler Scheduled Job Complete: frappe.monitor.flush for christianwiki.demo
2022-01-02 13:00:50,993 INFO scheduler Scheduled Job Start: frappe.utils.global_search.sync_global_search for christianwiki.demo
2022-01-02 13:00:51,374 INFO scheduler Scheduled Job Complete: frappe.utils.global_search.sync_global_search for christianwiki.demo
2022-01-02 13:00:51,551 INFO scheduler Scheduled Job Start: frappe.integrations.doctype.razorpay_settings.razorpay_settings.capture_payment for christianwiki.demo
2022-01-02 13:00:51,979 INFO scheduler Scheduled Job Complete: frappe.integrations.doctype.razorpay_settings.razorpay_settings.capture_payment for christianwiki.demo
2022-01-02 13:00:52,150 INFO scheduler Scheduled Job Start: frappe.email.doctype.email_account.email_account.notify_unreplied for christianwiki.demo
2022-01-02 13:00:52,658 INFO scheduler Scheduled Job Complete: frappe.email.doctype.email_account.email_account.notify_unreplied for christianwiki.demo
2022-01-02 13:00:52,833 INFO scheduler Scheduled Job Start: frappe.email.doctype.email_account.email_account.pull for christianwiki.demo
2022-01-02 13:00:53,358 INFO scheduler Scheduled Job Complete: frappe.email.doctype.email_account.email_account.pull for christianwiki.demo
2022-01-02 13:00:53,530 INFO scheduler Scheduled Job Start: frappe.email.queue.flush for christianwiki.demo
2022-01-02 13:00:53,978 INFO scheduler Scheduled Job Complete: frappe.email.queue.flush for christianwiki.demo
2022-01-02 13:00:54,149 INFO scheduler Scheduled Job Start: frappe.twofactor.delete_all_barcodes_for_users for christianwiki.demo
2022-01-02 13:00:54,769 INFO scheduler Scheduled Job Complete: frappe.twofactor.delete_all_barcodes_for_users for christianwiki.demo
2022-01-02 13:00:55,012 INFO scheduler Scheduled Job Start: frappe.website.doctype.web_page.web_page.check_publish_status for christianwiki.demo
2022-01-02 13:00:55,711 INFO scheduler Scheduled Job Complete: frappe.website.doctype.web_page.web_page.check_publish_status for christianwiki.demo
2022-01-02 13:00:55,949 INFO scheduler Scheduled Job Start: frappe.oauth.delete_oauth2_data for christianwiki.demo
2022-01-02 13:00:56,852 INFO scheduler Scheduled Job Complete: frappe.oauth.delete_oauth2_data for christianwiki.demo
2022-01-02 13:01:41,917 DEBUG scheduler Queued events for site christianwiki.demo
2022-01-02 13:02:42,287 DEBUG scheduler Queued events for site christianwiki.demo
2022-01-02 13:03:42,651 DEBUG scheduler Queued events for site christianwiki.demo
2022-01-02 13:04:43,098 DEBUG scheduler Queued events for site christianwiki.demo
2022-01-02 13:04:43,161 INFO scheduler Scheduled Job Start: frappe.monitor.flush for christianwiki.demo
2022-01-02 13:04:43,878 INFO scheduler Scheduled Job Complete: frappe.monitor.flush for christianwiki.demo
2022-01-02 13:04:44,053 INFO scheduler Scheduled Job Start: frappe.utils.global_search.sync_global_search for christianwiki.demo
2022-01-02 13:04:44,422 INFO scheduler Scheduled Job Complete: frappe.utils.global_search.sync_global_search for christianwiki.demo
2022-01-02 13:04:44,599 INFO scheduler Scheduled Job Start: frappe.integrations.doctype.razorpay_settings.razorpay_settings.capture_payment for christianwiki.demo
2022-01-02 13:04:45,121 INFO scheduler Scheduled Job Complete: frappe.integrations.doctype.razorpay_settings.razorpay_settings.capture_payment for christianwiki.demo
2022-01-02 13:04:45,292 INFO scheduler Scheduled Job Start: frappe.email.doctype.email_account.email_account.notify_unreplied for christianwiki.demo
2022-01-02 13:04:45,885 INFO scheduler Scheduled Job Complete: frappe.email.doctype.email_account.email_account.notify_unreplied for christianwiki.demo
2022-01-02 13:04:46,062 INFO scheduler Scheduled Job Start: frappe.email.doctype.email_account.email_account.pull for christianwiki.demo
2022-01-02 13:04:46,616 INFO scheduler Scheduled Job Complete: frappe.email.doctype.email_account.email_account.pull for christianwiki.demo
2022-01-02 13:04:46,795 INFO scheduler Scheduled Job Start: frappe.email.queue.flush for christianwiki.demo
2022-01-02 13:04:47,216 INFO scheduler Scheduled Job Complete: frappe.email.queue.flush for christianwiki.demo
2022-01-02 13:05:43,465 DEBUG scheduler Queued events for site christianwiki.demo
2022-01-02 13:06:43,825 DEBUG scheduler Queued events for site christianwiki.demo
2022-01-02 13:07:44,185 DEBUG scheduler Queued events for site christianwiki.demo
2022-01-02 13:08:44,650 DEBUG scheduler Queued events for site christianwiki.demo
2022-01-02 13:08:44,699 INFO scheduler Scheduled Job Start: frappe.monitor.flush for christianwiki.demo
2022-01-02 13:08:45,125 INFO scheduler Scheduled Job Complete: frappe.monitor.flush for christianwiki.demo
2022-01-02 13:08:45,297 INFO scheduler Scheduled Job Start: frappe.utils.global_search.sync_global_search for christianwiki.demo
2022-01-02 13:08:45,667 INFO scheduler Scheduled Job Complete: frappe.utils.global_search.sync_global_search for christianwiki.demo
2022-01-02 13:08:45,840 INFO scheduler Scheduled Job Start: frappe.integrations.doctype.razorpay_settings.razorpay_settings.capture_payment for christianwiki.demo
2022-01-02 13:08:46,297 INFO scheduler Scheduled Job Complete: frappe.integrations.doctype.razorpay_settings.razorpay_settings.capture_payment for christianwiki.demo
2022-01-02 13:08:46,469 INFO scheduler Scheduled Job Start: frappe.email.doctype.email_account.email_account.notify_unreplied for christianwiki.demo
2022-01-02 13:08:47,010 INFO scheduler Scheduled Job Complete: frappe.email.doctype.email_account.email_account.notify_unreplied for christianwiki.demo
2022-01-02 13:08:47,185 INFO scheduler Scheduled Job Start: frappe.email.doctype.email_account.email_account.pull for christianwiki.demo
2022-01-02 13:08:47,695 INFO scheduler Scheduled Job Complete: frappe.email.doctype.email_account.email_account.pull for christianwiki.demo
2022-01-02 13:08:47,865 INFO scheduler Scheduled Job Start: frappe.email.queue.flush for christianwiki.demo
2022-01-02 13:08:48,351 INFO scheduler Scheduled Job Complete: frappe.email.queue.flush for christianwiki.demo
2022-01-02 13:09:45,002 DEBUG scheduler Queued events for site christianwiki.demo
2022-01-02 13:10:45,347 DEBUG scheduler Queued events for site christianwiki.demo
2022-01-02 13:11:45,699 DEBUG scheduler Queued events for site christianwiki.demo
2022-01-02 13:12:46,118 DEBUG scheduler Queued events for site christianwiki.demo
2022-01-02 13:12:46,238 INFO scheduler Scheduled Job Start: frappe.monitor.flush for christianwiki.demo
2022-01-02 13:12:47,077 INFO scheduler Scheduled Job Complete: frappe.monitor.flush for christianwiki.demo
2022-01-02 13:12:47,252 INFO scheduler Scheduled Job Start: frappe.utils.global_search.sync_global_search for christianwiki.demo
2022-01-02 13:12:47,686 INFO scheduler Scheduled Job Complete: frappe.utils.global_search.sync_global_search for christianwiki.demo
2022-01-02 13:12:47,863 INFO scheduler Scheduled Job Start: frappe.integrations.doctype.razorpay_settings.razorpay_settings.capture_payment for christianwiki.demo
2022-01-02 13:12:48,554 INFO scheduler Scheduled Job Complete: frappe.integrations.doctype.razorpay_settings.razorpay_settings.capture_payment for christianwiki.demo
2022-01-02 13:12:48,723 INFO scheduler Scheduled Job Start: frappe.email.doctype.email_account.email_account.notify_unreplied for christianwiki.demo
2022-01-02 13:12:49,365 INFO scheduler Scheduled Job Complete: frappe.email.doctype.email_account.email_account.notify_unreplied for christianwiki.demo
2022-01-02 13:12:49,533 INFO scheduler Scheduled Job Start: frappe.email.doctype.email_account.email_account.pull for christianwiki.demo
2022-01-02 13:12:50,216 INFO scheduler Scheduled Job Complete: frappe.email.doctype.email_account.email_account.pull for christianwiki.demo
2022-01-02 13:12:50,383 INFO scheduler Scheduled Job Start: frappe.email.queue.flush for christianwiki.demo
2022-01-02 13:12:50,807 INFO scheduler Scheduled Job Complete: frappe.email.queue.flush for christianwiki.demo
2022-01-02 13:13:46,503 DEBUG scheduler Queued events for site christianwiki.demo
2022-01-02 13:14:46,863 DEBUG scheduler Queued events for site christianwiki.demo
2022-01-02 13:15:47,254 DEBUG scheduler Queued events for site christianwiki.demo
2022-01-02 13:15:47,382 INFO scheduler Scheduled Job Start: frappe.twofactor.delete_all_barcodes_for_users for christianwiki.demo
2022-01-02 13:15:48,767 INFO scheduler Scheduled Job Complete: frappe.twofactor.delete_all_barcodes_for_users for christianwiki.demo
2022-01-02 13:15:49,009 INFO scheduler Scheduled Job Start: frappe.website.doctype.web_page.web_page.check_publish_status for christianwiki.demo
2022-01-02 13:15:50,462 INFO scheduler Scheduled Job Complete: frappe.website.doctype.web_page.web_page.check_publish_status for christianwiki.demo
2022-01-02 13:15:50,717 INFO scheduler Scheduled Job Start: frappe.oauth.delete_oauth2_data for christianwiki.demo
2022-01-02 13:15:51,994 INFO scheduler Scheduled Job Complete: frappe.oauth.delete_oauth2_data for christianwiki.demo
2022-01-02 13:16:47,704 DEBUG scheduler Queued events for site christianwiki.demo
2022-01-02 13:16:47,766 INFO scheduler Scheduled Job Start: frappe.monitor.flush for christianwiki.demo
2022-01-02 13:16:48,237 INFO scheduler Scheduled Job Complete: frappe.monitor.flush for christianwiki.demo
2022-01-02 13:16:48,414 INFO scheduler Scheduled Job Start: frappe.utils.global_search.sync_global_search for christianwiki.demo
2022-01-02 13:16:48,790 INFO scheduler Scheduled Job Complete: frappe.utils.global_search.sync_global_search for christianwiki.demo
2022-01-02 13:16:48,970 INFO scheduler Scheduled Job Start: frappe.integrations.doctype.razorpay_settings.razorpay_settings.capture_payment for christianwiki.demo
2022-01-02 13:16:49,410 INFO scheduler Scheduled Job Complete: frappe.integrations.doctype.razorpay_settings.razorpay_settings.capture_payment for christianwiki.demo
2022-01-02 13:16:49,586 INFO scheduler Scheduled Job Start: frappe.email.doctype.email_account.email_account.notify_unreplied for christianwiki.demo
2022-01-02 13:16:50,131 INFO scheduler Scheduled Job Complete: frappe.email.doctype.email_account.email_account.notify_unreplied for christianwiki.demo
2022-01-02 13:16:50,302 INFO scheduler Scheduled Job Start: frappe.email.doctype.email_account.email_account.pull for christianwiki.demo
2022-01-02 13:16:51,020 INFO scheduler Scheduled Job Complete: frappe.email.doctype.email_account.email_account.pull for christianwiki.demo
2022-01-02 13:16:51,191 INFO scheduler Scheduled Job Start: frappe.email.queue.flush for christianwiki.demo
2022-01-02 13:16:51,704 INFO scheduler Scheduled Job Complete: frappe.email.queue.flush for christianwiki.demo
2022-01-02 13:17:48,060 DEBUG scheduler Queued events for site christianwiki.demo
2022-01-02 13:18:48,416 DEBUG scheduler Queued events for site christianwiki.demo
2022-01-02 13:19:48,780 DEBUG scheduler Queued events for site christianwiki.demo
2022-01-02 13:20:49,212 DEBUG scheduler Queued events for site christianwiki.demo
2022-01-02 13:20:49,276 INFO scheduler Scheduled Job Start: frappe.monitor.flush for christianwiki.demo
2022-01-02 13:20:50,134 INFO scheduler Scheduled Job Complete: frappe.monitor.flush for christianwiki.demo
2022-01-02 13:20:50,310 INFO scheduler Scheduled Job Start: frappe.utils.global_search.sync_global_search for christianwiki.demo
2022-01-02 13:20:50,807 INFO scheduler Scheduled Job Complete: frappe.utils.global_search.sync_global_search for christianwiki.demo
2022-01-02 13:20:50,981 INFO scheduler Scheduled Job Start: frappe.integrations.doctype.razorpay_settings.razorpay_settings.capture_payment for christianwiki.demo
2022-01-02 13:20:51,447 INFO scheduler Scheduled Job Complete: frappe.integrations.doctype.razorpay_settings.razorpay_settings.capture_payment for christianwiki.demo
2022-01-02 13:20:51,616 INFO scheduler Scheduled Job Start: frappe.email.doctype.email_account.email_account.notify_unreplied for christianwiki.demo
2022-01-02 13:20:52,128 INFO scheduler Scheduled Job Complete: frappe.email.doctype.email_account.email_account.notify_unreplied for christianwiki.demo
2022-01-02 13:20:52,297 INFO scheduler Scheduled Job Start: frappe.email.doctype.email_account.email_account.pull for christianwiki.demo
2022-01-02 13:20:52,980 INFO scheduler Scheduled Job Complete: frappe.email.doctype.email_account.email_account.pull for christianwiki.demo
2022-01-02 13:20:53,151 INFO scheduler Scheduled Job Start: frappe.email.queue.flush for christianwiki.demo
2022-01-02 13:20:53,576 INFO scheduler Scheduled Job Complete: frappe.email.queue.flush for christianwiki.demo
2022-01-02 13:21:49,568 DEBUG scheduler Queued events for site christianwiki.demo
2022-01-02 13:22:49,927 DEBUG scheduler Queued events for site christianwiki.demo
2022-01-02 13:23:50,284 DEBUG scheduler Queued events for site christianwiki.demo
2022-01-02 13:24:50,726 DEBUG scheduler Queued events for site christianwiki.demo
2022-01-02 13:24:50,793 INFO scheduler Scheduled Job Start: frappe.monitor.flush for christianwiki.demo
2022-01-02 13:24:51,613 INFO scheduler Scheduled Job Complete: frappe.monitor.flush for christianwiki.demo
2022-01-02 13:24:51,790 INFO scheduler Scheduled Job Start: frappe.utils.global_search.sync_global_search for christianwiki.demo
2022-01-02 13:24:52,279 INFO scheduler Scheduled Job Complete: frappe.utils.global_search.sync_global_search for christianwiki.demo
2022-01-02 13:24:52,456 INFO scheduler Scheduled Job Start: frappe.integrations.doctype.razorpay_settings.razorpay_settings.capture_payment for christianwiki.demo
2022-01-02 13:24:52,891 INFO scheduler Scheduled Job Complete: frappe.integrations.doctype.razorpay_settings.razorpay_settings.capture_payment for christianwiki.demo
2022-01-02 13:24:53,064 INFO scheduler Scheduled Job Start: frappe.email.doctype.email_account.email_account.notify_unreplied for christianwiki.demo
2022-01-02 13:24:53,551 INFO scheduler Scheduled Job Complete: frappe.email.doctype.email_account.email_account.notify_unreplied for christianwiki.demo
2022-01-02 13:24:53,723 INFO scheduler Scheduled Job Start: frappe.email.doctype.email_account.email_account.pull for christianwiki.demo
2022-01-02 13:24:54,246 INFO scheduler Scheduled Job Complete: frappe.email.doctype.email_account.email_account.pull for christianwiki.demo
2022-01-02 13:24:54,419 INFO scheduler Scheduled Job Start: frappe.email.queue.flush for christianwiki.demo
2022-01-02 13:24:54,812 INFO scheduler Scheduled Job Complete: frappe.email.queue.flush for christianwiki.demo
2022-01-02 13:25:51,089 DEBUG scheduler Queued events for site christianwiki.demo
2022-01-02 13:26:51,452 DEBUG scheduler Queued events for site christianwiki.demo
2022-01-02 13:27:51,833 DEBUG scheduler Queued events for site christianwiki.demo
2022-01-02 13:28:52,281 DEBUG scheduler Queued events for site christianwiki.demo
2022-01-02 13:28:52,347 INFO scheduler Scheduled Job Start: frappe.monitor.flush for christianwiki.demo
2022-01-02 13:28:53,139 INFO scheduler Scheduled Job Complete: frappe.monitor.flush for christianwiki.demo
2022-01-02 13:28:53,316 INFO scheduler Scheduled Job Start: frappe.utils.global_search.sync_global_search for christianwiki.demo
2022-01-02 13:28:53,682 INFO scheduler Scheduled Job Complete: frappe.utils.global_search.sync_global_search for christianwiki.demo
2022-01-02 13:28:53,857 INFO scheduler Scheduled Job Start: frappe.integrations.doctype.razorpay_settings.razorpay_settings.capture_payment for christianwiki.demo
2022-01-02 13:28:54,385 INFO scheduler Scheduled Job Complete: frappe.integrations.doctype.razorpay_settings.razorpay_settings.capture_payment for christianwiki.demo
2022-01-02 13:28:54,557 INFO scheduler Scheduled Job Start: frappe.email.doctype.email_account.email_account.notify_unreplied for christianwiki.demo
2022-01-02 13:28:55,111 INFO scheduler Scheduled Job Complete: frappe.email.doctype.email_account.email_account.notify_unreplied for christianwiki.demo
2022-01-02 13:28:55,282 INFO scheduler Scheduled Job Start: frappe.email.doctype.email_account.email_account.pull for christianwiki.demo
2022-01-02 13:28:55,787 INFO scheduler Scheduled Job Complete: frappe.email.doctype.email_account.email_account.pull for christianwiki.demo
2022-01-02 13:28:55,956 INFO scheduler Scheduled Job Start: frappe.email.queue.flush for christianwiki.demo
2022-01-02 13:28:56,457 INFO scheduler Scheduled Job Complete: frappe.email.queue.flush for christianwiki.demo
2022-01-02 13:29:52,655 DEBUG scheduler Queued events for site christianwiki.demo
2022-01-02 13:30:53,062 DEBUG scheduler Queued events for site christianwiki.demo
2022-01-02 13:30:53,187 INFO scheduler Scheduled Job Start: frappe.twofactor.delete_all_barcodes_for_users for christianwiki.demo
2022-01-02 13:30:54,233 INFO scheduler Scheduled Job Complete: frappe.twofactor.delete_all_barcodes_for_users for christianwiki.demo
2022-01-02 13:30:54,649 INFO scheduler Scheduled Job Start: frappe.website.doctype.web_page.web_page.check_publish_status for christianwiki.demo
2022-01-02 13:30:55,435 INFO scheduler Scheduled Job Complete: frappe.website.doctype.web_page.web_page.check_publish_status for christianwiki.demo
2022-01-02 13:30:55,666 INFO scheduler Scheduled Job Start: frappe.oauth.delete_oauth2_data for christianwiki.demo
2022-01-02 13:30:56,353 INFO scheduler Scheduled Job Complete: frappe.oauth.delete_oauth2_data for christianwiki.demo
2022-01-02 13:31:53,434 DEBUG scheduler Queued events for site christianwiki.demo
2022-01-02 13:32:53,870 DEBUG scheduler Queued events for site christianwiki.demo
2022-01-02 13:32:53,932 INFO scheduler Scheduled Job Start: frappe.monitor.flush for christianwiki.demo
2022-01-02 13:32:54,702 INFO scheduler Scheduled Job Complete: frappe.monitor.flush for christianwiki.demo
2022-01-02 13:32:54,871 INFO scheduler Scheduled Job Start: frappe.utils.global_search.sync_global_search for christianwiki.demo
2022-01-02 13:32:55,332 INFO scheduler Scheduled Job Complete: frappe.utils.global_search.sync_global_search for christianwiki.demo
2022-01-02 13:32:55,508 INFO scheduler Scheduled Job Start: frappe.integrations.doctype.razorpay_settings.razorpay_settings.capture_payment for christianwiki.demo
2022-01-02 13:32:55,960 INFO scheduler Scheduled Job Complete: frappe.integrations.doctype.razorpay_settings.razorpay_settings.capture_payment for christianwiki.demo
2022-01-02 13:32:56,138 INFO scheduler Scheduled Job Start: frappe.email.doctype.email_account.email_account.notify_unreplied for christianwiki.demo
2022-01-02 13:32:56,729 INFO scheduler Scheduled Job Complete: frappe.email.doctype.email_account.email_account.notify_unreplied for christianwiki.demo
2022-01-02 13:32:56,900 INFO scheduler Scheduled Job Start: frappe.email.doctype.email_account.email_account.pull for christianwiki.demo
2022-01-02 13:32:57,425 INFO scheduler Scheduled Job Complete: frappe.email.doctype.email_account.email_account.pull for christianwiki.demo
2022-01-02 13:32:57,598 INFO scheduler Scheduled Job Start: frappe.email.queue.flush for christianwiki.demo
2022-01-02 13:32:57,989 INFO scheduler Scheduled Job Complete: frappe.email.queue.flush for christianwiki.demo
2022-01-02 13:33:54,235 DEBUG scheduler Queued events for site christianwiki.demo
2022-01-02 13:34:54,679 DEBUG scheduler Queued events for site christianwiki.demo
2022-01-02 13:35:55,149 DEBUG scheduler Queued events for site christianwiki.demo
2022-01-02 13:36:55,719 DEBUG scheduler Queued events for site christianwiki.demo
2022-01-02 13:36:56,622 INFO scheduler Scheduled Job Start: frappe.monitor.flush for christianwiki.demo
2022-01-02 13:36:59,312 INFO scheduler Scheduled Job Complete: frappe.monitor.flush for christianwiki.demo
2022-01-02 13:36:59,542 INFO scheduler Scheduled Job Start: frappe.utils.global_search.sync_global_search for christianwiki.demo
2022-01-02 13:37:00,041 INFO scheduler Scheduled Job Complete: frappe.utils.global_search.sync_global_search for christianwiki.demo
2022-01-02 13:37:00,226 INFO scheduler Scheduled Job Start: frappe.integrations.doctype.razorpay_settings.razorpay_settings.capture_payment for christianwiki.demo
2022-01-02 13:37:00,813 INFO scheduler Scheduled Job Complete: frappe.integrations.doctype.razorpay_settings.razorpay_settings.capture_payment for christianwiki.demo
2022-01-02 13:37:01,008 INFO scheduler Scheduled Job Start: frappe.email.doctype.email_account.email_account.notify_unreplied for christianwiki.demo
2022-01-02 13:37:02,550 INFO scheduler Scheduled Job Complete: frappe.email.doctype.email_account.email_account.notify_unreplied for christianwiki.demo
2022-01-02 13:37:02,731 INFO scheduler Scheduled Job Start: frappe.email.doctype.email_account.email_account.pull for christianwiki.demo
2022-01-02 13:37:03,441 INFO scheduler Scheduled Job Complete: frappe.email.doctype.email_account.email_account.pull for christianwiki.demo
2022-01-02 13:37:03,626 INFO scheduler Scheduled Job Start: frappe.email.queue.flush for christianwiki.demo
2022-01-02 13:37:04,180 INFO scheduler Scheduled Job Complete: frappe.email.queue.flush for christianwiki.demo
2022-01-02 13:37:56,066 DEBUG scheduler Queued events for site christianwiki.demo
2022-01-02 13:39:01,891 DEBUG scheduler Queued events for site christianwiki.demo
2022-01-02 13:40:02,561 DEBUG scheduler Queued events for site christianwiki.demo
2022-01-02 13:40:05,019 INFO scheduler Scheduled Job Start: frappe.monitor.flush for christianwiki.demo
2022-01-02 13:40:09,339 INFO scheduler Scheduled Job Complete: frappe.monitor.flush for christianwiki.demo
2022-01-02 13:40:09,541 INFO scheduler Scheduled Job Start: frappe.utils.global_search.sync_global_search for christianwiki.demo
2022-01-02 13:40:10,087 INFO scheduler Scheduled Job Complete: frappe.utils.global_search.sync_global_search for christianwiki.demo
2022-01-02 13:40:10,269 INFO scheduler Scheduled Job Start: frappe.integrations.doctype.razorpay_settings.razorpay_settings.capture_payment for christianwiki.demo
2022-01-02 13:40:11,043 INFO scheduler Scheduled Job Complete: frappe.integrations.doctype.razorpay_settings.razorpay_settings.capture_payment for christianwiki.demo
2022-01-02 13:40:11,220 INFO scheduler Scheduled Job Start: frappe.email.doctype.email_account.email_account.notify_unreplied for christianwiki.demo
2022-01-02 13:40:12,769 INFO scheduler Scheduled Job Complete: frappe.email.doctype.email_account.email_account.notify_unreplied for christianwiki.demo
2022-01-02 13:40:13,016 INFO scheduler Scheduled Job Start: frappe.email.doctype.email_account.email_account.pull for christianwiki.demo
2022-01-02 13:40:13,651 INFO scheduler Scheduled Job Complete: frappe.email.doctype.email_account.email_account.pull for christianwiki.demo
2022-01-02 13:40:13,832 INFO scheduler Scheduled Job Start: frappe.email.queue.flush for christianwiki.demo
2022-01-02 13:40:14,421 INFO scheduler Scheduled Job Complete: frappe.email.queue.flush for christianwiki.demo
2022-01-02 13:41:02,959 DEBUG scheduler Queued events for site christianwiki.demo
2022-01-02 13:42:03,419 DEBUG scheduler Queued events for site christianwiki.demo
2022-01-02 13:43:03,929 DEBUG scheduler Queued events for site christianwiki.demo
2022-01-02 13:44:04,462 DEBUG scheduler Queued events for site christianwiki.demo
2022-01-02 13:44:04,545 INFO scheduler Scheduled Job Start: frappe.monitor.flush for christianwiki.demo
2022-01-02 13:44:04,946 INFO scheduler Scheduled Job Complete: frappe.monitor.flush for christianwiki.demo
2022-01-02 13:44:05,127 INFO scheduler Scheduled Job Start: frappe.utils.global_search.sync_global_search for christianwiki.demo
2022-01-02 13:44:05,494 INFO scheduler Scheduled Job Complete: frappe.utils.global_search.sync_global_search for christianwiki.demo
2022-01-02 13:44:05,675 INFO scheduler Scheduled Job Start: frappe.integrations.doctype.razorpay_settings.razorpay_settings.capture_payment for christianwiki.demo
2022-01-02 13:44:06,099 INFO scheduler Scheduled Job Complete: frappe.integrations.doctype.razorpay_settings.razorpay_settings.capture_payment for christianwiki.demo
2022-01-02 13:44:06,295 INFO scheduler Scheduled Job Start: frappe.email.doctype.email_account.email_account.notify_unreplied for christianwiki.demo
2022-01-02 13:44:06,856 INFO scheduler Scheduled Job Complete: frappe.email.doctype.email_account.email_account.notify_unreplied for christianwiki.demo
2022-01-02 13:44:07,075 INFO scheduler Scheduled Job Start: frappe.email.doctype.email_account.email_account.pull for christianwiki.demo
2022-01-02 13:44:07,704 INFO scheduler Scheduled Job Complete: frappe.email.doctype.email_account.email_account.pull for christianwiki.demo
2022-01-02 13:44:07,904 INFO scheduler Scheduled Job Start: frappe.email.queue.flush for christianwiki.demo
2022-01-02 13:44:08,340 INFO scheduler Scheduled Job Complete: frappe.email.queue.flush for christianwiki.demo
2022-01-02 13:45:05,668 DEBUG scheduler Queued events for site christianwiki.demo
2022-01-02 13:45:08,159 INFO scheduler Scheduled Job Start: frappe.twofactor.delete_all_barcodes_for_users for christianwiki.demo
2022-01-02 13:45:13,411 INFO scheduler Scheduled Job Complete: frappe.twofactor.delete_all_barcodes_for_users for christianwiki.demo
2022-01-02 13:45:13,749 INFO scheduler Scheduled Job Start: frappe.website.doctype.web_page.web_page.check_publish_status for christianwiki.demo
2022-01-02 13:45:15,933 INFO scheduler Scheduled Job Complete: frappe.website.doctype.web_page.web_page.check_publish_status for christianwiki.demo
2022-01-02 13:45:16,190 INFO scheduler Scheduled Job Start: frappe.oauth.delete_oauth2_data for christianwiki.demo
2022-01-02 13:45:17,257 INFO scheduler Scheduled Job Complete: frappe.oauth.delete_oauth2_data for christianwiki.demo
2022-01-02 13:46:06,314 DEBUG scheduler Queued events for site christianwiki.demo
2022-01-02 13:47:06,666 DEBUG scheduler Queued events for site christianwiki.demo
2022-01-02 13:48:07,222 DEBUG scheduler Queued events for site christianwiki.demo
2022-01-02 13:48:08,756 INFO scheduler Scheduled Job Start: frappe.monitor.flush for christianwiki.demo
2022-01-02 13:48:10,993 INFO scheduler Scheduled Job Complete: frappe.monitor.flush for christianwiki.demo
2022-01-02 13:48:12,023 INFO scheduler Scheduled Job Start: frappe.utils.global_search.sync_global_search for christianwiki.demo
2022-01-02 13:48:12,623 INFO scheduler Scheduled Job Complete: frappe.utils.global_search.sync_global_search for christianwiki.demo
2022-01-02 13:48:12,813 INFO scheduler Scheduled Job Start: frappe.integrations.doctype.razorpay_settings.razorpay_settings.capture_payment for christianwiki.demo
2022-01-02 13:48:13,602 INFO scheduler Scheduled Job Complete: frappe.integrations.doctype.razorpay_settings.razorpay_settings.capture_payment for christianwiki.demo
2022-01-02 13:48:13,797 INFO scheduler Scheduled Job Start: frappe.email.doctype.email_account.email_account.notify_unreplied for christianwiki.demo
2022-01-02 13:48:15,471 INFO scheduler Scheduled Job Complete: frappe.email.doctype.email_account.email_account.notify_unreplied for christianwiki.demo
2022-01-02 13:48:15,651 INFO scheduler Scheduled Job Start: frappe.email.doctype.email_account.email_account.pull for christianwiki.demo
2022-01-02 13:48:16,345 INFO scheduler Scheduled Job Complete: frappe.email.doctype.email_account.email_account.pull for christianwiki.demo
2022-01-02 13:48:16,528 INFO scheduler Scheduled Job Start: frappe.email.queue.flush for christianwiki.demo
2022-01-02 13:48:17,021 INFO scheduler Scheduled Job Complete: frappe.email.queue.flush for christianwiki.demo
2022-01-02 13:49:07,781 DEBUG scheduler Queued events for site christianwiki.demo
2022-01-02 13:50:08,583 DEBUG scheduler Queued events for site christianwiki.demo
2022-01-02 13:51:09,125 DEBUG scheduler Queued events for site christianwiki.demo
2022-01-02 13:52:09,939 DEBUG scheduler Queued events for site christianwiki.demo
2022-01-02 13:52:15,576 INFO scheduler Scheduled Job Start: frappe.monitor.flush for christianwiki.demo
2022-01-02 13:52:18,906 INFO scheduler Scheduled Job Complete: frappe.monitor.flush for christianwiki.demo
2022-01-02 13:52:19,104 INFO scheduler Scheduled Job Start: frappe.utils.global_search.sync_global_search for christianwiki.demo
2022-01-02 13:52:19,886 INFO scheduler Scheduled Job Complete: frappe.utils.global_search.sync_global_search for christianwiki.demo
2022-01-02 13:52:20,077 INFO scheduler Scheduled Job Start: frappe.integrations.doctype.razorpay_settings.razorpay_settings.capture_payment for christianwiki.demo
2022-01-02 13:52:20,825 INFO scheduler Scheduled Job Complete: frappe.integrations.doctype.razorpay_settings.razorpay_settings.capture_payment for christianwiki.demo
2022-01-02 13:52:21,015 INFO scheduler Scheduled Job Start: frappe.email.doctype.email_account.email_account.notify_unreplied for christianwiki.demo
2022-01-02 13:52:22,522 INFO scheduler Scheduled Job Complete: frappe.email.doctype.email_account.email_account.notify_unreplied for christianwiki.demo
2022-01-02 13:52:22,725 INFO scheduler Scheduled Job Start: frappe.email.doctype.email_account.email_account.pull for christianwiki.demo
2022-01-02 13:52:23,733 INFO scheduler Scheduled Job Complete: frappe.email.doctype.email_account.email_account.pull for christianwiki.demo
2022-01-02 13:52:23,959 INFO scheduler Scheduled Job Start: frappe.email.queue.flush for christianwiki.demo
2022-01-02 13:52:24,628 INFO scheduler Scheduled Job Complete: frappe.email.queue.flush for christianwiki.demo
2022-01-02 13:53:10,479 DEBUG scheduler Queued events for site christianwiki.demo
2022-01-02 13:54:10,851 DEBUG scheduler Queued events for site christianwiki.demo
2022-01-02 13:55:11,220 DEBUG scheduler Queued events for site christianwiki.demo
2022-01-02 13:56:11,745 DEBUG scheduler Queued events for site christianwiki.demo
2022-01-02 13:56:11,792 INFO scheduler Scheduled Job Start: frappe.monitor.flush for christianwiki.demo
2022-01-02 13:56:12,314 INFO scheduler Scheduled Job Complete: frappe.monitor.flush for christianwiki.demo
2022-01-02 13:56:12,524 INFO scheduler Scheduled Job Start: frappe.utils.global_search.sync_global_search for christianwiki.demo
2022-01-02 13:56:13,018 INFO scheduler Scheduled Job Complete: frappe.utils.global_search.sync_global_search for christianwiki.demo
2022-01-02 13:56:13,272 INFO scheduler Scheduled Job Start: frappe.integrations.doctype.razorpay_settings.razorpay_settings.capture_payment for christianwiki.demo
2022-01-02 13:56:13,745 INFO scheduler Scheduled Job Complete: frappe.integrations.doctype.razorpay_settings.razorpay_settings.capture_payment for christianwiki.demo
2022-01-02 13:56:13,943 INFO scheduler Scheduled Job Start: frappe.email.doctype.email_account.email_account.notify_unreplied for christianwiki.demo
2022-01-02 13:56:14,789 INFO scheduler Scheduled Job Complete: frappe.email.doctype.email_account.email_account.notify_unreplied for christianwiki.demo
2022-01-02 13:56:15,030 INFO scheduler Scheduled Job Start: frappe.email.doctype.email_account.email_account.pull for christianwiki.demo
2022-01-02 13:56:15,695 INFO scheduler Scheduled Job Complete: frappe.email.doctype.email_account.email_account.pull for christianwiki.demo
2022-01-02 13:56:15,882 INFO scheduler Scheduled Job Start: frappe.email.queue.flush for christianwiki.demo
2022-01-02 13:56:16,303 INFO scheduler Scheduled Job Complete: frappe.email.queue.flush for christianwiki.demo
2022-01-02 13:57:12,242 DEBUG scheduler Queued events for site christianwiki.demo
2022-01-02 13:58:12,750 DEBUG scheduler Queued events for site christianwiki.demo
2022-01-02 13:59:13,191 DEBUG scheduler Queued events for site christianwiki.demo
2022-01-02 14:00:14,012 INFO scheduler Scheduled Job Start: frappe.email.doctype.newsletter.newsletter.send_scheduled_email for christianwiki.demo
2022-01-02 14:00:14,381 DEBUG scheduler Queued events for site christianwiki.demo
2022-01-02 14:00:16,062 INFO scheduler Scheduled Job Complete: frappe.email.doctype.newsletter.newsletter.send_scheduled_email for christianwiki.demo
2022-01-02 14:00:16,314 INFO scheduler Scheduled Job Start: frappe.integrations.doctype.google_calendar.google_calendar.sync for christianwiki.demo
2022-01-02 14:00:19,398 INFO scheduler Scheduled Job Complete: frappe.integrations.doctype.google_calendar.google_calendar.sync for christianwiki.demo
2022-01-02 14:00:19,680 INFO scheduler Scheduled Job Start: frappe.desk.form.document_follow.send_hourly_updates for christianwiki.demo
2022-01-02 14:00:20,470 INFO scheduler Scheduled Job Complete: frappe.desk.form.document_follow.send_hourly_updates for christianwiki.demo
2022-01-02 14:00:20,837 INFO scheduler Scheduled Job Start: frappe.deferred_insert.save_to_db for christianwiki.demo
2022-01-02 14:00:21,623 INFO scheduler Scheduled Job Complete: frappe.deferred_insert.save_to_db for christianwiki.demo
2022-01-02 14:00:21,879 INFO scheduler Scheduled Job Start: frappe.desk.page.backups.backups.delete_downloadable_backups for christianwiki.demo
2022-01-02 14:00:22,589 INFO scheduler Scheduled Job Complete: frappe.desk.page.backups.backups.delete_downloadable_backups for christianwiki.demo
2022-01-02 14:00:22,873 INFO scheduler Scheduled Job Start: frappe.utils.error.collect_error_snapshots for christianwiki.demo
2022-01-02 14:00:23,628 INFO scheduler Scheduled Job Complete: frappe.utils.error.collect_error_snapshots for christianwiki.demo
2022-01-02 14:00:23,924 INFO scheduler Scheduled Job Start: frappe.model.utils.user_settings.sync_user_settings for christianwiki.demo
2022-01-02 14:00:24,775 INFO scheduler Scheduled Job Complete: frappe.model.utils.user_settings.sync_user_settings for christianwiki.demo
2022-01-02 14:00:25,036 INFO scheduler Scheduled Job Start: frappe.model.utils.link_count.update_link_count for christianwiki.demo
2022-01-02 14:00:25,745 INFO scheduler Scheduled Job Complete: frappe.model.utils.link_count.update_link_count for christianwiki.demo
2022-01-02 14:00:26,025 INFO scheduler Scheduled Job Start: frappe.monitor.flush for christianwiki.demo
2022-01-02 14:00:26,434 INFO scheduler Scheduled Job Complete: frappe.monitor.flush for christianwiki.demo
2022-01-02 14:00:26,621 INFO scheduler Scheduled Job Start: frappe.utils.global_search.sync_global_search for christianwiki.demo
2022-01-02 14:00:27,160 INFO scheduler Scheduled Job Complete: frappe.utils.global_search.sync_global_search for christianwiki.demo
2022-01-02 14:00:27,347 INFO scheduler Scheduled Job Start: frappe.integrations.doctype.razorpay_settings.razorpay_settings.capture_payment for christianwiki.demo
2022-01-02 14:00:27,816 INFO scheduler Scheduled Job Complete: frappe.integrations.doctype.razorpay_settings.razorpay_settings.capture_payment for christianwiki.demo
2022-01-02 14:00:28,011 INFO scheduler Scheduled Job Start: frappe.email.doctype.email_account.email_account.notify_unreplied for christianwiki.demo
2022-01-02 14:00:28,537 INFO scheduler Scheduled Job Complete: frappe.email.doctype.email_account.email_account.notify_unreplied for christianwiki.demo
2022-01-02 14:00:28,726 INFO scheduler Scheduled Job Start: frappe.email.doctype.email_account.email_account.pull for christianwiki.demo
2022-01-02 14:00:29,395 INFO scheduler Scheduled Job Complete: frappe.email.doctype.email_account.email_account.pull for christianwiki.demo
2022-01-02 14:00:29,598 INFO scheduler Scheduled Job Start: frappe.email.queue.flush for christianwiki.demo
2022-01-02 14:00:30,059 INFO scheduler Scheduled Job Complete: frappe.email.queue.flush for christianwiki.demo
2022-01-02 14:00:30,249 INFO scheduler Scheduled Job Start: frappe.twofactor.delete_all_barcodes_for_users for christianwiki.demo
2022-01-02 14:00:31,061 INFO scheduler Scheduled Job Complete: frappe.twofactor.delete_all_barcodes_for_users for christianwiki.demo
2022-01-02 14:00:31,312 INFO scheduler Scheduled Job Start: frappe.website.doctype.web_page.web_page.check_publish_status for christianwiki.demo
2022-01-02 14:00:32,463 INFO scheduler Scheduled Job Complete: frappe.website.doctype.web_page.web_page.check_publish_status for christianwiki.demo
2022-01-02 14:00:32,724 INFO scheduler Scheduled Job Start: frappe.oauth.delete_oauth2_data for christianwiki.demo
2022-01-02 14:00:33,976 INFO scheduler Scheduled Job Complete: frappe.oauth.delete_oauth2_data for christianwiki.demo
2022-01-02 14:01:14,769 DEBUG scheduler Queued events for site christianwiki.demo
2022-01-02 14:02:15,235 DEBUG scheduler Queued events for site christianwiki.demo
2022-01-02 14:03:15,697 DEBUG scheduler Queued events for site christianwiki.demo
2022-01-02 14:04:16,223 INFO scheduler Scheduled Job Start: frappe.monitor.flush for christianwiki.demo
2022-01-02 14:04:16,263 DEBUG scheduler Queued events for site christianwiki.demo
2022-01-02 14:04:16,641 INFO scheduler Scheduled Job Complete: frappe.monitor.flush for christianwiki.demo
2022-01-02 14:04:16,891 INFO scheduler Scheduled Job Start: frappe.utils.global_search.sync_global_search for christianwiki.demo
2022-01-02 14:04:17,308 INFO scheduler Scheduled Job Complete: frappe.utils.global_search.sync_global_search for christianwiki.demo
2022-01-02 14:04:17,497 INFO scheduler Scheduled Job Start: frappe.integrations.doctype.razorpay_settings.razorpay_settings.capture_payment for christianwiki.demo
2022-01-02 14:04:18,072 INFO scheduler Scheduled Job Complete: frappe.integrations.doctype.razorpay_settings.razorpay_settings.capture_payment for christianwiki.demo
2022-01-02 14:04:18,254 INFO scheduler Scheduled Job Start: frappe.email.doctype.email_account.email_account.notify_unreplied for christianwiki.demo
2022-01-02 14:04:18,825 INFO scheduler Scheduled Job Complete: frappe.email.doctype.email_account.email_account.notify_unreplied for christianwiki.demo
2022-01-02 14:04:19,014 INFO scheduler Scheduled Job Start: frappe.email.doctype.email_account.email_account.pull for christianwiki.demo
2022-01-02 14:04:19,635 INFO scheduler Scheduled Job Complete: frappe.email.doctype.email_account.email_account.pull for christianwiki.demo
2022-01-02 14:04:19,827 INFO scheduler Scheduled Job Start: frappe.email.queue.flush for christianwiki.demo
2022-01-02 14:04:20,365 INFO scheduler Scheduled Job Complete: frappe.email.queue.flush for christianwiki.demo
2022-01-02 14:05:17,271 DEBUG scheduler Queued events for site christianwiki.demo
2022-01-02 14:06:18,106 DEBUG scheduler Queued events for site christianwiki.demo
2022-01-02 14:07:18,475 DEBUG scheduler Queued events for site christianwiki.demo
2022-01-02 14:08:19,029 DEBUG scheduler Queued events for site christianwiki.demo
2022-01-02 14:08:19,085 INFO scheduler Scheduled Job Start: frappe.monitor.flush for christianwiki.demo
2022-01-02 14:08:19,827 INFO scheduler Scheduled Job Complete: frappe.monitor.flush for christianwiki.demo
2022-01-02 14:08:20,047 INFO scheduler Scheduled Job Start: frappe.utils.global_search.sync_global_search for christianwiki.demo
2022-01-02 14:08:20,419 INFO scheduler Scheduled Job Complete: frappe.utils.global_search.sync_global_search for christianwiki.demo
2022-01-02 14:08:20,610 INFO scheduler Scheduled Job Start: frappe.integrations.doctype.razorpay_settings.razorpay_settings.capture_payment for christianwiki.demo
2022-01-02 14:08:21,400 INFO scheduler Scheduled Job Complete: frappe.integrations.doctype.razorpay_settings.razorpay_settings.capture_payment for christianwiki.demo
2022-01-02 14:08:21,590 INFO scheduler Scheduled Job Start: frappe.email.doctype.email_account.email_account.notify_unreplied for christianwiki.demo
2022-01-02 14:08:22,346 INFO scheduler Scheduled Job Complete: frappe.email.doctype.email_account.email_account.notify_unreplied for christianwiki.demo
2022-01-02 14:08:22,541 INFO scheduler Scheduled Job Start: frappe.email.doctype.email_account.email_account.pull for christianwiki.demo
2022-01-02 14:08:23,168 INFO scheduler Scheduled Job Complete: frappe.email.doctype.email_account.email_account.pull for christianwiki.demo
2022-01-02 14:08:23,375 INFO scheduler Scheduled Job Start: frappe.email.queue.flush for christianwiki.demo
2022-01-02 14:08:23,803 INFO scheduler Scheduled Job Complete: frappe.email.queue.flush for christianwiki.demo
2022-01-02 14:09:19,393 DEBUG scheduler Queued events for site christianwiki.demo
2022-01-02 14:10:19,768 DEBUG scheduler Queued events for site christianwiki.demo
2022-01-02 14:11:20,130 DEBUG scheduler Queued events for site christianwiki.demo
2022-01-02 14:12:24,909 DEBUG scheduler Queued events for site christianwiki.demo
2022-01-02 14:12:24,978 INFO scheduler Scheduled Job Start: frappe.monitor.flush for christianwiki.demo
2022-01-02 14:12:25,397 INFO scheduler Scheduled Job Complete: frappe.monitor.flush for christianwiki.demo
2022-01-02 14:12:25,589 INFO scheduler Scheduled Job Start: frappe.utils.global_search.sync_global_search for christianwiki.demo
2022-01-02 14:12:26,074 INFO scheduler Scheduled Job Complete: frappe.utils.global_search.sync_global_search for christianwiki.demo
2022-01-02 14:12:26,273 INFO scheduler Scheduled Job Start: frappe.integrations.doctype.razorpay_settings.razorpay_settings.capture_payment for christianwiki.demo
2022-01-02 14:12:26,863 INFO scheduler Scheduled Job Complete: frappe.integrations.doctype.razorpay_settings.razorpay_settings.capture_payment for christianwiki.demo
2022-01-02 14:12:27,053 INFO scheduler Scheduled Job Start: frappe.email.doctype.email_account.email_account.notify_unreplied for christianwiki.demo
2022-01-02 14:12:27,588 INFO scheduler Scheduled Job Complete: frappe.email.doctype.email_account.email_account.notify_unreplied for christianwiki.demo
2022-01-02 14:12:27,778 INFO scheduler Scheduled Job Start: frappe.email.doctype.email_account.email_account.pull for christianwiki.demo
2022-01-02 14:12:28,327 INFO scheduler Scheduled Job Complete: frappe.email.doctype.email_account.email_account.pull for christianwiki.demo
2022-01-02 14:12:28,516 INFO scheduler Scheduled Job Start: frappe.email.queue.flush for christianwiki.demo
2022-01-02 14:12:28,929 INFO scheduler Scheduled Job Complete: frappe.email.queue.flush for christianwiki.demo
2022-01-02 14:13:25,271 DEBUG scheduler Queued events for site christianwiki.demo
2022-01-02 14:14:25,637 DEBUG scheduler Queued events for site christianwiki.demo
2022-01-02 14:15:26,070 DEBUG scheduler Queued events for site christianwiki.demo
2022-01-02 14:15:26,214 INFO scheduler Scheduled Job Start: frappe.twofactor.delete_all_barcodes_for_users for christianwiki.demo
2022-01-02 14:15:27,656 INFO scheduler Scheduled Job Complete: frappe.twofactor.delete_all_barcodes_for_users for christianwiki.demo
2022-01-02 14:15:27,913 INFO scheduler Scheduled Job Start: frappe.website.doctype.web_page.web_page.check_publish_status for christianwiki.demo
2022-01-02 14:15:29,336 INFO scheduler Scheduled Job Complete: frappe.website.doctype.web_page.web_page.check_publish_status for christianwiki.demo
2022-01-02 14:15:29,725 INFO scheduler Scheduled Job Start: frappe.oauth.delete_oauth2_data for christianwiki.demo
2022-01-02 14:15:30,968 INFO scheduler Scheduled Job Complete: frappe.oauth.delete_oauth2_data for christianwiki.demo
2022-01-02 14:16:26,530 DEBUG scheduler Queued events for site christianwiki.demo
2022-01-02 14:16:26,600 INFO scheduler Scheduled Job Start: frappe.monitor.flush for christianwiki.demo
2022-01-02 14:16:27,141 INFO scheduler Scheduled Job Complete: frappe.monitor.flush for christianwiki.demo
2022-01-02 14:16:27,341 INFO scheduler Scheduled Job Start: frappe.utils.global_search.sync_global_search for christianwiki.demo
2022-01-02 14:16:27,730 INFO scheduler Scheduled Job Complete: frappe.utils.global_search.sync_global_search for christianwiki.demo
2022-01-02 14:16:27,952 INFO scheduler Scheduled Job Start: frappe.integrations.doctype.razorpay_settings.razorpay_settings.capture_payment for christianwiki.demo
2022-01-02 14:16:28,540 INFO scheduler Scheduled Job Complete: frappe.integrations.doctype.razorpay_settings.razorpay_settings.capture_payment for christianwiki.demo
2022-01-02 14:16:28,730 INFO scheduler Scheduled Job Start: frappe.email.doctype.email_account.email_account.notify_unreplied for christianwiki.demo
2022-01-02 14:16:29,369 INFO scheduler Scheduled Job Complete: frappe.email.doctype.email_account.email_account.notify_unreplied for christianwiki.demo
2022-01-02 14:16:29,567 INFO scheduler Scheduled Job Start: frappe.email.doctype.email_account.email_account.pull for christianwiki.demo
2022-01-02 14:16:30,135 INFO scheduler Scheduled Job Complete: frappe.email.doctype.email_account.email_account.pull for christianwiki.demo
2022-01-02 14:16:30,328 INFO scheduler Scheduled Job Start: frappe.email.queue.flush for christianwiki.demo
2022-01-02 14:16:30,739 INFO scheduler Scheduled Job Complete: frappe.email.queue.flush for christianwiki.demo
2022-01-02 14:17:26,898 DEBUG scheduler Queued events for site christianwiki.demo
2022-01-02 14:18:27,245 DEBUG scheduler Queued events for site christianwiki.demo
2022-01-02 14:19:27,630 DEBUG scheduler Queued events for site christianwiki.demo
2022-01-02 14:20:28,088 DEBUG scheduler Queued events for site christianwiki.demo
2022-01-02 14:20:28,168 INFO scheduler Scheduled Job Start: frappe.monitor.flush for christianwiki.demo
2022-01-02 14:20:28,654 INFO scheduler Scheduled Job Complete: frappe.monitor.flush for christianwiki.demo
2022-01-02 14:20:28,842 INFO scheduler Scheduled Job Start: frappe.utils.global_search.sync_global_search for christianwiki.demo
2022-01-02 14:20:29,219 INFO scheduler Scheduled Job Complete: frappe.utils.global_search.sync_global_search for christianwiki.demo
2022-01-02 14:20:29,416 INFO scheduler Scheduled Job Start: frappe.integrations.doctype.razorpay_settings.razorpay_settings.capture_payment for christianwiki.demo
2022-01-02 14:20:29,956 INFO scheduler Scheduled Job Complete: frappe.integrations.doctype.razorpay_settings.razorpay_settings.capture_payment for christianwiki.demo
2022-01-02 14:20:30,144 INFO scheduler Scheduled Job Start: frappe.email.doctype.email_account.email_account.notify_unreplied for christianwiki.demo
2022-01-02 14:20:30,690 INFO scheduler Scheduled Job Complete: frappe.email.doctype.email_account.email_account.notify_unreplied for christianwiki.demo
2022-01-02 14:20:30,876 INFO scheduler Scheduled Job Start: frappe.email.doctype.email_account.email_account.pull for christianwiki.demo
2022-01-02 14:20:31,501 INFO scheduler Scheduled Job Complete: frappe.email.doctype.email_account.email_account.pull for christianwiki.demo
2022-01-02 14:20:31,690 INFO scheduler Scheduled Job Start: frappe.email.queue.flush for christianwiki.demo
2022-01-02 14:20:32,201 INFO scheduler Scheduled Job Complete: frappe.email.queue.flush for christianwiki.demo
2022-01-02 14:21:28,442 DEBUG scheduler Queued events for site christianwiki.demo
2022-01-02 14:22:29,138 DEBUG scheduler Queued events for site christianwiki.demo
2022-01-02 14:23:29,594 DEBUG scheduler Queued events for site christianwiki.demo
2022-01-02 14:24:30,041 DEBUG scheduler Queued events for site christianwiki.demo
2022-01-02 14:24:31,775 INFO scheduler Scheduled Job Start: frappe.monitor.flush for christianwiki.demo
2022-01-02 14:24:34,109 INFO scheduler Scheduled Job Complete: frappe.monitor.flush for christianwiki.demo
2022-01-02 14:24:34,311 INFO scheduler Scheduled Job Start: frappe.utils.global_search.sync_global_search for christianwiki.demo
2022-01-02 14:24:34,791 INFO scheduler Scheduled Job Complete: frappe.utils.global_search.sync_global_search for christianwiki.demo
2022-01-02 14:24:34,980 INFO scheduler Scheduled Job Start: frappe.integrations.doctype.razorpay_settings.razorpay_settings.capture_payment for christianwiki.demo
2022-01-02 14:24:35,552 INFO scheduler Scheduled Job Complete: frappe.integrations.doctype.razorpay_settings.razorpay_settings.capture_payment for christianwiki.demo
2022-01-02 14:24:35,741 INFO scheduler Scheduled Job Start: frappe.email.doctype.email_account.email_account.notify_unreplied for christianwiki.demo
2022-01-02 14:24:36,791 INFO scheduler Scheduled Job Complete: frappe.email.doctype.email_account.email_account.notify_unreplied for christianwiki.demo
2022-01-02 14:24:36,998 INFO scheduler Scheduled Job Start: frappe.email.doctype.email_account.email_account.pull for christianwiki.demo
2022-01-02 14:24:37,709 INFO scheduler Scheduled Job Complete: frappe.email.doctype.email_account.email_account.pull for christianwiki.demo
2022-01-02 14:24:37,894 INFO scheduler Scheduled Job Start: frappe.email.queue.flush for christianwiki.demo
2022-01-02 14:24:38,445 INFO scheduler Scheduled Job Complete: frappe.email.queue.flush for christianwiki.demo
2022-01-02 14:25:30,403 DEBUG scheduler Queued events for site christianwiki.demo
2022-01-02 14:26:30,753 DEBUG scheduler Queued events for site christianwiki.demo
2022-01-02 14:27:31,108 DEBUG scheduler Queued events for site christianwiki.demo
2022-01-02 14:28:31,576 DEBUG scheduler Queued events for site christianwiki.demo
2022-01-02 14:28:31,639 INFO scheduler Scheduled Job Start: frappe.monitor.flush for christianwiki.demo
2022-01-02 14:28:32,100 INFO scheduler Scheduled Job Complete: frappe.monitor.flush for christianwiki.demo
2022-01-02 14:28:32,285 INFO scheduler Scheduled Job Start: frappe.utils.global_search.sync_global_search for christianwiki.demo
2022-01-02 14:28:32,665 INFO scheduler Scheduled Job Complete: frappe.utils.global_search.sync_global_search for christianwiki.demo
2022-01-02 14:28:32,856 INFO scheduler Scheduled Job Start: frappe.integrations.doctype.razorpay_settings.razorpay_settings.capture_payment for christianwiki.demo
2022-01-02 14:28:33,376 INFO scheduler Scheduled Job Complete: frappe.integrations.doctype.razorpay_settings.razorpay_settings.capture_payment for christianwiki.demo
2022-01-02 14:28:33,557 INFO scheduler Scheduled Job Start: frappe.email.doctype.email_account.email_account.notify_unreplied for christianwiki.demo
2022-01-02 14:28:34,048 INFO scheduler Scheduled Job Complete: frappe.email.doctype.email_account.email_account.notify_unreplied for christianwiki.demo
2022-01-02 14:28:34,232 INFO scheduler Scheduled Job Start: frappe.email.doctype.email_account.email_account.pull for christianwiki.demo
2022-01-02 14:28:34,883 INFO scheduler Scheduled Job Complete: frappe.email.doctype.email_account.email_account.pull for christianwiki.demo
2022-01-02 14:28:35,065 INFO scheduler Scheduled Job Start: frappe.email.queue.flush for christianwiki.demo
2022-01-02 14:28:35,582 INFO scheduler Scheduled Job Complete: frappe.email.queue.flush for christianwiki.demo
2022-01-02 14:29:31,950 DEBUG scheduler Queued events for site christianwiki.demo
2022-01-02 14:30:32,353 DEBUG scheduler Queued events for site christianwiki.demo
2022-01-02 14:30:32,490 INFO scheduler Scheduled Job Start: frappe.twofactor.delete_all_barcodes_for_users for christianwiki.demo
2022-01-02 14:30:33,890 INFO scheduler Scheduled Job Complete: frappe.twofactor.delete_all_barcodes_for_users for christianwiki.demo
2022-01-02 14:30:34,184 INFO scheduler Scheduled Job Start: frappe.website.doctype.web_page.web_page.check_publish_status for christianwiki.demo
2022-01-02 14:30:35,789 INFO scheduler Scheduled Job Complete: frappe.website.doctype.web_page.web_page.check_publish_status for christianwiki.demo
2022-01-02 14:30:36,026 INFO scheduler Scheduled Job Start: frappe.oauth.delete_oauth2_data for christianwiki.demo
2022-01-02 14:30:37,046 INFO scheduler Scheduled Job Complete: frappe.oauth.delete_oauth2_data for christianwiki.demo
2022-01-02 14:31:32,720 DEBUG scheduler Queued events for site christianwiki.demo
2022-01-02 14:32:33,187 DEBUG scheduler Queued events for site christianwiki.demo
2022-01-02 14:32:33,264 INFO scheduler Scheduled Job Start: frappe.monitor.flush for christianwiki.demo
2022-01-02 14:32:33,638 INFO scheduler Scheduled Job Complete: frappe.monitor.flush for christianwiki.demo
2022-01-02 14:32:33,838 INFO scheduler Scheduled Job Start: frappe.utils.global_search.sync_global_search for christianwiki.demo
2022-01-02 14:32:34,308 INFO scheduler Scheduled Job Complete: frappe.utils.global_search.sync_global_search for christianwiki.demo
2022-01-02 14:32:34,510 INFO scheduler Scheduled Job Start: frappe.integrations.doctype.razorpay_settings.razorpay_settings.capture_payment for christianwiki.demo
2022-01-02 14:32:35,053 INFO scheduler Scheduled Job Complete: frappe.integrations.doctype.razorpay_settings.razorpay_settings.capture_payment for christianwiki.demo
2022-01-02 14:32:35,250 INFO scheduler Scheduled Job Start: frappe.email.doctype.email_account.email_account.notify_unreplied for christianwiki.demo
2022-01-02 14:32:35,814 INFO scheduler Scheduled Job Complete: frappe.email.doctype.email_account.email_account.notify_unreplied for christianwiki.demo
2022-01-02 14:32:36,005 INFO scheduler Scheduled Job Start: frappe.email.doctype.email_account.email_account.pull for christianwiki.demo
2022-01-02 14:32:36,573 INFO scheduler Scheduled Job Complete: frappe.email.doctype.email_account.email_account.pull for christianwiki.demo
2022-01-02 14:32:36,768 INFO scheduler Scheduled Job Start: frappe.email.queue.flush for christianwiki.demo
2022-01-02 14:32:37,173 INFO scheduler Scheduled Job Complete: frappe.email.queue.flush for christianwiki.demo
2022-01-02 14:33:33,553 DEBUG scheduler Queued events for site christianwiki.demo
2022-01-02 14:34:33,924 DEBUG scheduler Queued events for site christianwiki.demo
2022-01-02 14:35:34,286 DEBUG scheduler Queued events for site christianwiki.demo
2022-01-02 14:36:34,741 DEBUG scheduler Queued events for site christianwiki.demo
2022-01-02 14:36:34,805 INFO scheduler Scheduled Job Start: frappe.monitor.flush for christianwiki.demo
2022-01-02 14:36:35,299 INFO scheduler Scheduled Job Complete: frappe.monitor.flush for christianwiki.demo
2022-01-02 14:36:35,486 INFO scheduler Scheduled Job Start: frappe.utils.global_search.sync_global_search for christianwiki.demo
2022-01-02 14:36:35,949 INFO scheduler Scheduled Job Complete: frappe.utils.global_search.sync_global_search for christianwiki.demo
2022-01-02 14:36:36,136 INFO scheduler Scheduled Job Start: frappe.integrations.doctype.razorpay_settings.razorpay_settings.capture_payment for christianwiki.demo
2022-01-02 14:36:36,563 INFO scheduler Scheduled Job Complete: frappe.integrations.doctype.razorpay_settings.razorpay_settings.capture_payment for christianwiki.demo
2022-01-02 14:36:36,745 INFO scheduler Scheduled Job Start: frappe.email.doctype.email_account.email_account.notify_unreplied for christianwiki.demo
2022-01-02 14:36:37,400 INFO scheduler Scheduled Job Complete: frappe.email.doctype.email_account.email_account.notify_unreplied for christianwiki.demo
2022-01-02 14:36:37,581 INFO scheduler Scheduled Job Start: frappe.email.doctype.email_account.email_account.pull for christianwiki.demo
2022-01-02 14:36:38,164 INFO scheduler Scheduled Job Complete: frappe.email.doctype.email_account.email_account.pull for christianwiki.demo
2022-01-02 14:36:38,344 INFO scheduler Scheduled Job Start: frappe.email.queue.flush for christianwiki.demo
2022-01-02 14:36:38,745 INFO scheduler Scheduled Job Complete: frappe.email.queue.flush for christianwiki.demo
2022-01-02 14:37:35,116 DEBUG scheduler Queued events for site christianwiki.demo
2022-01-02 14:38:35,484 DEBUG scheduler Queued events for site christianwiki.demo
2022-01-02 14:39:35,843 DEBUG scheduler Queued events for site christianwiki.demo
2022-01-02 14:40:36,287 DEBUG scheduler Queued events for site christianwiki.demo
2022-01-02 14:40:36,363 INFO scheduler Scheduled Job Start: frappe.monitor.flush for christianwiki.demo
2022-01-02 14:40:36,831 INFO scheduler Scheduled Job Complete: frappe.monitor.flush for christianwiki.demo
2022-01-02 14:40:37,021 INFO scheduler Scheduled Job Start: frappe.utils.global_search.sync_global_search for christianwiki.demo
2022-01-02 14:40:37,385 INFO scheduler Scheduled Job Complete: frappe.utils.global_search.sync_global_search for christianwiki.demo
2022-01-02 14:40:37,573 INFO scheduler Scheduled Job Start: frappe.integrations.doctype.razorpay_settings.razorpay_settings.capture_payment for christianwiki.demo
2022-01-02 14:40:38,098 INFO scheduler Scheduled Job Complete: frappe.integrations.doctype.razorpay_settings.razorpay_settings.capture_payment for christianwiki.demo
2022-01-02 14:40:38,280 INFO scheduler Scheduled Job Start: frappe.email.doctype.email_account.email_account.notify_unreplied for christianwiki.demo
2022-01-02 14:40:38,871 INFO scheduler Scheduled Job Complete: frappe.email.doctype.email_account.email_account.notify_unreplied for christianwiki.demo
2022-01-02 14:40:39,052 INFO scheduler Scheduled Job Start: frappe.email.doctype.email_account.email_account.pull for christianwiki.demo
2022-01-02 14:40:39,576 INFO scheduler Scheduled Job Complete: frappe.email.doctype.email_account.email_account.pull for christianwiki.demo
2022-01-02 14:40:39,766 INFO scheduler Scheduled Job Start: frappe.email.queue.flush for christianwiki.demo
2022-01-02 14:40:40,476 INFO scheduler Scheduled Job Complete: frappe.email.queue.flush for christianwiki.demo
2022-01-02 14:41:36,646 DEBUG scheduler Queued events for site christianwiki.demo
2022-01-02 14:42:37,007 DEBUG scheduler Queued events for site christianwiki.demo
2022-01-02 14:43:37,377 DEBUG scheduler Queued events for site christianwiki.demo
2022-01-02 14:44:37,816 DEBUG scheduler Queued events for site christianwiki.demo
2022-01-02 14:44:37,893 INFO scheduler Scheduled Job Start: frappe.monitor.flush for christianwiki.demo
2022-01-02 14:44:38,337 INFO scheduler Scheduled Job Complete: frappe.monitor.flush for christianwiki.demo
2022-01-02 14:44:38,523 INFO scheduler Scheduled Job Start: frappe.utils.global_search.sync_global_search for christianwiki.demo
2022-01-02 14:44:38,956 INFO scheduler Scheduled Job Complete: frappe.utils.global_search.sync_global_search for christianwiki.demo
2022-01-02 14:44:39,136 INFO scheduler Scheduled Job Start: frappe.integrations.doctype.razorpay_settings.razorpay_settings.capture_payment for christianwiki.demo
2022-01-02 14:44:39,566 INFO scheduler Scheduled Job Complete: frappe.integrations.doctype.razorpay_settings.razorpay_settings.capture_payment for christianwiki.demo
2022-01-02 14:44:39,750 INFO scheduler Scheduled Job Start: frappe.email.doctype.email_account.email_account.notify_unreplied for christianwiki.demo
2022-01-02 14:44:40,371 INFO scheduler Scheduled Job Complete: frappe.email.doctype.email_account.email_account.notify_unreplied for christianwiki.demo
2022-01-02 14:44:40,561 INFO scheduler Scheduled Job Start: frappe.email.doctype.email_account.email_account.pull for christianwiki.demo
2022-01-02 14:44:41,084 INFO scheduler Scheduled Job Complete: frappe.email.doctype.email_account.email_account.pull for christianwiki.demo
2022-01-02 14:44:41,262 INFO scheduler Scheduled Job Start: frappe.email.queue.flush for christianwiki.demo
2022-01-02 14:44:41,752 INFO scheduler Scheduled Job Complete: frappe.email.queue.flush for christianwiki.demo
2022-01-02 14:45:38,222 DEBUG scheduler Queued events for site christianwiki.demo
2022-01-02 14:45:38,358 INFO scheduler Scheduled Job Start: frappe.twofactor.delete_all_barcodes_for_users for christianwiki.demo
2022-01-02 14:45:39,148 INFO scheduler Scheduled Job Complete: frappe.twofactor.delete_all_barcodes_for_users for christianwiki.demo
2022-01-02 14:45:39,475 INFO scheduler Scheduled Job Start: frappe.website.doctype.web_page.web_page.check_publish_status for christianwiki.demo
2022-01-02 14:45:40,223 INFO scheduler Scheduled Job Complete: frappe.website.doctype.web_page.web_page.check_publish_status for christianwiki.demo
2022-01-02 14:45:40,544 INFO scheduler Scheduled Job Start: frappe.oauth.delete_oauth2_data for christianwiki.demo
2022-01-02 14:45:41,161 INFO scheduler Scheduled Job Complete: frappe.oauth.delete_oauth2_data for christianwiki.demo
2022-01-02 14:46:38,581 DEBUG scheduler Queued events for site christianwiki.demo
2022-01-02 14:47:39,055 DEBUG scheduler Queued events for site christianwiki.demo
2022-01-02 14:48:39,512 DEBUG scheduler Queued events for site christianwiki.demo
2022-01-02 14:48:39,583 INFO scheduler Scheduled Job Start: frappe.monitor.flush for christianwiki.demo
2022-01-02 14:48:40,057 INFO scheduler Scheduled Job Complete: frappe.monitor.flush for christianwiki.demo
2022-01-02 14:48:40,245 INFO scheduler Scheduled Job Start: frappe.utils.global_search.sync_global_search for christianwiki.demo
2022-01-02 14:48:40,611 INFO scheduler Scheduled Job Complete: frappe.utils.global_search.sync_global_search for christianwiki.demo
2022-01-02 14:48:40,799 INFO scheduler Scheduled Job Start: frappe.integrations.doctype.razorpay_settings.razorpay_settings.capture_payment for christianwiki.demo
2022-01-02 14:48:41,317 INFO scheduler Scheduled Job Complete: frappe.integrations.doctype.razorpay_settings.razorpay_settings.capture_payment for christianwiki.demo
2022-01-02 14:48:41,502 INFO scheduler Scheduled Job Start: frappe.email.doctype.email_account.email_account.notify_unreplied for christianwiki.demo
2022-01-02 14:48:42,022 INFO scheduler Scheduled Job Complete: frappe.email.doctype.email_account.email_account.notify_unreplied for christianwiki.demo
2022-01-02 14:48:42,207 INFO scheduler Scheduled Job Start: frappe.email.doctype.email_account.email_account.pull for christianwiki.demo
2022-01-02 14:48:42,734 INFO scheduler Scheduled Job Complete: frappe.email.doctype.email_account.email_account.pull for christianwiki.demo
2022-01-02 14:48:42,917 INFO scheduler Scheduled Job Start: frappe.email.queue.flush for christianwiki.demo
2022-01-02 14:48:43,334 INFO scheduler Scheduled Job Complete: frappe.email.queue.flush for christianwiki.demo
2022-01-02 14:49:39,889 DEBUG scheduler Queued events for site christianwiki.demo
2022-01-02 14:50:40,245 DEBUG scheduler Queued events for site christianwiki.demo
2022-01-02 14:51:40,603 DEBUG scheduler Queued events for site christianwiki.demo
2022-01-02 14:52:41,047 DEBUG scheduler Queued events for site christianwiki.demo
2022-01-02 14:52:41,114 INFO scheduler Scheduled Job Start: frappe.monitor.flush for christianwiki.demo
2022-01-02 14:52:41,586 INFO scheduler Scheduled Job Complete: frappe.monitor.flush for christianwiki.demo
2022-01-02 14:52:41,781 INFO scheduler Scheduled Job Start: frappe.utils.global_search.sync_global_search for christianwiki.demo
2022-01-02 14:52:42,151 INFO scheduler Scheduled Job Complete: frappe.utils.global_search.sync_global_search for christianwiki.demo
2022-01-02 14:52:42,339 INFO scheduler Scheduled Job Start: frappe.integrations.doctype.razorpay_settings.razorpay_settings.capture_payment for christianwiki.demo
2022-01-02 14:52:42,855 INFO scheduler Scheduled Job Complete: frappe.integrations.doctype.razorpay_settings.razorpay_settings.capture_payment for christianwiki.demo
2022-01-02 14:52:43,033 INFO scheduler Scheduled Job Start: frappe.email.doctype.email_account.email_account.notify_unreplied for christianwiki.demo
2022-01-02 14:52:43,524 INFO scheduler Scheduled Job Complete: frappe.email.doctype.email_account.email_account.notify_unreplied for christianwiki.demo
2022-01-02 14:52:43,708 INFO scheduler Scheduled Job Start: frappe.email.doctype.email_account.email_account.pull for christianwiki.demo
2022-01-02 14:52:44,559 INFO scheduler Scheduled Job Complete: frappe.email.doctype.email_account.email_account.pull for christianwiki.demo
2022-01-02 14:52:44,737 INFO scheduler Scheduled Job Start: frappe.email.queue.flush for christianwiki.demo
2022-01-02 14:52:45,236 INFO scheduler Scheduled Job Complete: frappe.email.queue.flush for christianwiki.demo
2022-01-02 14:53:41,419 DEBUG scheduler Queued events for site christianwiki.demo
2022-01-02 14:54:41,785 DEBUG scheduler Queued events for site christianwiki.demo
